mc16_13TeV.364543.Sherpa_222_NNPDF30NNLO_SinglePhoton_pty_70_140.deriv.DAOD_EXOT6.e5938_s3126_r10724_p4004
mc16_13TeV.364544.Sherpa_222_NNPDF30NNLO_SinglePhoton_pty_140_280.deriv.DAOD_EXOT6.e5938_s3126_r10724_p4004
mc16_13TeV.364545.Sherpa_222_NNPDF30NNLO_SinglePhoton_pty_280_500.deriv.DAOD_EXOT6.e5938_s3126_r10724_p4004
mc16_13TeV.364546.Sherpa_222_NNPDF30NNLO_SinglePhoton_pty_500_1000.deriv.DAOD_EXOT6.e5938_s3126_r10724_p4004
mc16_13TeV.364547.Sherpa_222_NNPDF30NNLO_SinglePhoton_pty_1000_E_CMS.deriv.DAOD_EXOT6.e6068_s3126_r10724_p4004
