#
#
#
#
#Dark Matter, s-channel
#
mc16_13TeV.305853.PowhegPythia8EvtGen_A14NNPDF23LO_DMA_1_10_gq0p25.recon.AOD.e5325_a875_r10724
mc16_13TeV.305854.PowhegPythia8EvtGen_A14NNPDF23LO_DMA_1_20_gq0p25.recon.AOD.e5325_a875_r10724
mc16_13TeV.305855.PowhegPythia8EvtGen_A14NNPDF23LO_DMA_1_50_gq0p25.recon.AOD.e5325_a875_r10724
mc16_13TeV.305856.PowhegPythia8EvtGen_A14NNPDF23LO_DMA_1_100_gq0p25.recon.AOD.e5325_a875_r10724
mc16_13TeV.305857.PowhegPythia8EvtGen_A14NNPDF23LO_DMA_1_200_gq0p25.recon.AOD.e5325_a875_r10724
mc16_13TeV.305858.PowhegPythia8EvtGen_A14NNPDF23LO_DMA_1_300_gq0p25.recon.AOD.e5325_a875_r10724
mc16_13TeV.305859.PowhegPythia8EvtGen_A14NNPDF23LO_DMA_1_400_gq0p25.recon.AOD.e5325_a875_r10724
mc16_13TeV.305860.PowhegPythia8EvtGen_A14NNPDF23LO_DMA_1_500_gq0p25.recon.AOD.e5325_a875_r10724
mc16_13TeV.305861.PowhegPythia8EvtGen_A14NNPDF23LO_DMA_1_700_gq0p25.recon.AOD.e5325_a875_r10724
mc16_13TeV.305862.PowhegPythia8EvtGen_A14NNPDF23LO_DMA_1_1000_gq0p25.recon.AOD.e5325_a875_r10724
mc16_13TeV.305863.PowhegPythia8EvtGen_A14NNPDF23LO_DMA_1_1200_gq0p25.recon.AOD.e5325_a875_r10724
mc16_13TeV.305864.PowhegPythia8EvtGen_A14NNPDF23LO_DMA_1_1500_gq0p25.recon.AOD.e5325_a875_r10724
mc16_13TeV.305865.PowhegPythia8EvtGen_A14NNPDF23LO_DMA_1_1750_gq0p25.recon.AOD.e5325_a875_r10724
mc16_13TeV.305866.PowhegPythia8EvtGen_A14NNPDF23LO_DMA_1_2000_gq0p25.recon.AOD.e5325_a875_r10724
mc16_13TeV.305867.PowhegPythia8EvtGen_A14NNPDF23LO_DMA_1_2250_gq0p25.recon.AOD.e5325_a875_r10724
mc16_13TeV.305868.PowhegPythia8EvtGen_A14NNPDF23LO_DMA_1_2750_gq0p25.recon.AOD.e5325_a875_r10724
mc16_13TeV.305869.PowhegPythia8EvtGen_A14NNPDF23LO_DMA_1_3500_gq0p25.recon.AOD.e5325_a875_r10724
mc16_13TeV.305870.PowhegPythia8EvtGen_A14NNPDF23LO_DMA_1_4500_gq0p25.recon.AOD.e5325_a875_r10724
mc16_13TeV.305871.PowhegPythia8EvtGen_A14NNPDF23LO_DMA_1_10000_gq0p25.recon.AOD.e5325_a875_r10724
mc16_13TeV.305872.PowhegPythia8EvtGen_A14NNPDF23LO_DMA_10_10_gq0p25.recon.AOD.e5325_a875_r10724
mc16_13TeV.305874.PowhegPythia8EvtGen_A14NNPDF23LO_DMA_15_20_gq0p25.recon.AOD.e5325_a875_r10724
########## rucio ls mc16_13TeV.305891.PowhegPythia8EvtGen_A14NNPDF23LO_DMA_10_10000_gq0p25.recon.AOD.*e**r10724*
mc16_13TeV.305892.PowhegPythia8EvtGen_A14NNPDF23LO_DMA_50_10_gq0p25.recon.AOD.e5325_a875_r10724
mc16_13TeV.305893.PowhegPythia8EvtGen_A14NNPDF23LO_DMA_50_20_gq0p25.recon.AOD.e5325_a875_r10724
mc16_13TeV.305894.PowhegPythia8EvtGen_A14NNPDF23LO_DMA_50_50_gq0p25.recon.AOD.e5325_a875_r10724
mc16_13TeV.305896.PowhegPythia8EvtGen_A14NNPDF23LO_DMA_55_100_gq0p25.recon.AOD.e5325_a875_r10724
########## rucio ls mc16_13TeV.305911.PowhegPythia8EvtGen_A14NNPDF23LO_DMA_50_10000_gq0p25.recon.AOD.*e**r10724*
mc16_13TeV.305912.PowhegPythia8EvtGen_A14NNPDF23LO_DMA_100_10_gq0p25.recon.AOD.e5325_a875_r10724
mc16_13TeV.305913.PowhegPythia8EvtGen_A14NNPDF23LO_DMA_100_20_gq0p25.recon.AOD.e5325_a875_r10724
mc16_13TeV.305914.PowhegPythia8EvtGen_A14NNPDF23LO_DMA_100_50_gq0p25.recon.AOD.e5325_a875_r10724
mc16_13TeV.305915.PowhegPythia8EvtGen_A14NNPDF23LO_DMA_100_100_gq0p25.recon.AOD.e5325_a875_r10724
mc16_13TeV.305917.PowhegPythia8EvtGen_A14NNPDF23LO_DMA_105_200_gq0p25.recon.AOD.e5325_a875_r10724
########## rucio ls mc16_13TeV.305931.PowhegPythia8EvtGen_A14NNPDF23LO_DMA_100_10000_gq0p25.recon.AOD.*e**r10724*
mc16_13TeV.305932.PowhegPythia8EvtGen_A14NNPDF23LO_DMA_150_10_gq0p25.recon.AOD.e5325_a875_r10724
mc16_13TeV.305933.PowhegPythia8EvtGen_A14NNPDF23LO_DMA_150_200_gq0p25.recon.AOD.e5325_a875_r10724
mc16_13TeV.305935.PowhegPythia8EvtGen_A14NNPDF23LO_DMA_155_300_gq0p25.recon.AOD.e5325_a875_r10724
########## rucio ls mc16_13TeV.305948.PowhegPythia8EvtGen_A14NNPDF23LO_DMA_150_10000_gq0p25.recon.AOD.*e**r10724*
mc16_13TeV.305949.PowhegPythia8EvtGen_A14NNPDF23LO_DMA_200_10_gq0p25.recon.AOD.e5325_a875_r10724
mc16_13TeV.305950.PowhegPythia8EvtGen_A14NNPDF23LO_DMA_200_100_gq0p25.recon.AOD.e5325_a875_r10724
mc16_13TeV.305951.PowhegPythia8EvtGen_A14NNPDF23LO_DMA_200_300_gq0p25.recon.AOD.e5325_a875_r10724
mc16_13TeV.305953.PowhegPythia8EvtGen_A14NNPDF23LO_DMA_205_400_gq0p25.recon.AOD.e5325_a875_r10724
########## rucio ls mc16_13TeV.305965.PowhegPythia8EvtGen_A14NNPDF23LO_DMA_200_10000_gq0p25.recon.AOD.*e**r10724*
mc16_13TeV.305966.PowhegPythia8EvtGen_A14NNPDF23LO_DMA_250_10_gq0p25.recon.AOD.e5325_a875_r10724
mc16_13TeV.305967.PowhegPythia8EvtGen_A14NNPDF23LO_DMA_250_400_gq0p25.recon.AOD.e5325_a875_r10724
mc16_13TeV.305969.PowhegPythia8EvtGen_A14NNPDF23LO_DMA_255_500_gq0p25.recon.AOD.e5325_a875_r10724
########## rucio ls mc16_13TeV.305980.PowhegPythia8EvtGen_A14NNPDF23LO_DMA_250_10000_gq0p25.recon.AOD.*e**r10724*
mc16_13TeV.305981.PowhegPythia8EvtGen_A14NNPDF23LO_DMA_300_10_gq0p25.recon.AOD.e5325_a875_r10724
mc16_13TeV.305982.PowhegPythia8EvtGen_A14NNPDF23LO_DMA_300_500_gq0p25.recon.AOD.e5325_a875_r10724
########## rucio ls mc16_13TeV.305993.PowhegPythia8EvtGen_A14NNPDF23LO_DMA_300_10000_gq0p25.recon.AOD.*e**r10724*
mc16_13TeV.305994.PowhegPythia8EvtGen_A14NNPDF23LO_DMA_350_10_gq0p25.recon.AOD.e5325_a875_r10724
mc16_13TeV.305995.PowhegPythia8EvtGen_A14NNPDF23LO_DMA_350_500_gq0p25.recon.AOD.e5325_a875_r10724
mc16_13TeV.305997.PowhegPythia8EvtGen_A14NNPDF23LO_DMA_355_700_gq0p25.recon.AOD.e5325_a875_r10724
########## rucio ls mc16_13TeV.306007.PowhegPythia8EvtGen_A14NNPDF23LO_DMA_350_10000_gq0p25.recon.AOD.*e**r10724*
mc16_13TeV.306008.PowhegPythia8EvtGen_A14NNPDF23LO_DMA_400_10_gq0p25.recon.AOD.e5325_a875_r10724
mc16_13TeV.306009.PowhegPythia8EvtGen_A14NNPDF23LO_DMA_400_700_gq0p25.recon.AOD.e5325_a875_r10724
########## rucio ls mc16_13TeV.306019.PowhegPythia8EvtGen_A14NNPDF23LO_DMA_400_10000_gq0p25.recon.AOD.*e**r10724*
mc16_13TeV.306020.PowhegPythia8EvtGen_A14NNPDF23LO_DMA_450_10_gq0p25.recon.AOD.e5325_a875_r10724
mc16_13TeV.306021.PowhegPythia8EvtGen_A14NNPDF23LO_DMA_450_700_gq0p25.recon.AOD.e5325_a875_r10724
########## rucio ls mc16_13TeV.306031.PowhegPythia8EvtGen_A14NNPDF23LO_DMA_450_10000_gq0p25.recon.AOD.*e**r10724*
mc16_13TeV.306032.PowhegPythia8EvtGen_A14NNPDF23LO_DMA_500_10_gq0p25.recon.AOD.e5325_a875_r10724
mc16_13TeV.306033.PowhegPythia8EvtGen_A14NNPDF23LO_DMA_500_700_gq0p25.recon.AOD.e5325_a875_r10724
mc16_13TeV.306035.PowhegPythia8EvtGen_A14NNPDF23LO_DMA_505_1000_gq0p25.recon.AOD.e5325_a875_r10724
########## rucio ls mc16_13TeV.306044.PowhegPythia8EvtGen_A14NNPDF23LO_DMA_500_10000_gq0p25.recon.AOD.*e**r10724*
mc16_13TeV.306045.PowhegPythia8EvtGen_A14NNPDF23LO_DMA_600_10_gq0p25.recon.AOD.e5325_a875_r10724
mc16_13TeV.306046.PowhegPythia8EvtGen_A14NNPDF23LO_DMA_600_1000_gq0p25.recon.AOD.e5325_a875_r10724
mc16_13TeV.306048.PowhegPythia8EvtGen_A14NNPDF23LO_DMA_605_1200_gq0p25.recon.AOD.e5325_a875_r10724
########## rucio ls mc16_13TeV.306056.PowhegPythia8EvtGen_A14NNPDF23LO_DMA_600_10000_gq0p25.recon.AOD.*e**r10724*
mc16_13TeV.306057.PowhegPythia8EvtGen_A14NNPDF23LO_DMA_750_10_gq0p25.recon.AOD.e5325_a875_r10724
mc16_13TeV.306058.PowhegPythia8EvtGen_A14NNPDF23LO_DMA_750_500_gq0p25.recon.AOD.e5325_a875_r10724
mc16_13TeV.306059.PowhegPythia8EvtGen_A14NNPDF23LO_DMA_750_1200_gq0p25.recon.AOD.e5325_a875_r10724
mc16_13TeV.306061.PowhegPythia8EvtGen_A14NNPDF23LO_DMA_755_1500_gq0p25.recon.AOD.e5325_a875_r10724
########## rucio ls mc16_13TeV.306068.PowhegPythia8EvtGen_A14NNPDF23LO_DMA_750_10000_gq0p25.recon.AOD.*e**r10724*
mc16_13TeV.306069.PowhegPythia8EvtGen_A14NNPDF23LO_DMA_1000_10_gq0p25.recon.AOD.e5325_a875_r10724
mc16_13TeV.306070.PowhegPythia8EvtGen_A14NNPDF23LO_DMA_1000_500_gq0p25.recon.AOD.e5325_a875_r10724
mc16_13TeV.306071.PowhegPythia8EvtGen_A14NNPDF23LO_DMA_1000_1200_gq0p25.recon.AOD.e5325_a875_r10724
mc16_13TeV.306072.PowhegPythia8EvtGen_A14NNPDF23LO_DMA_1000_1750_gq0p25.recon.AOD.e5325_a875_r10724
mc16_13TeV.306074.PowhegPythia8EvtGen_A14NNPDF23LO_DMA_1005_2000_gq0p25.recon.AOD.e5325_a875_r10724
mc16_13TeV.306079.PowhegPythia8EvtGen_A14NNPDF23LO_DMA_1000_10000_gq0p25.recon.AOD.e5325_a875_r10724
#
########## rucio ls mc16_13TeV.308712.PowhegPy8EG_A14N23LO_DMA_1_850_gq0p25.recon.AOD.*e**r10724*
########## rucio ls mc16_13TeV.308713.PowhegPy8EG_A14N23LO_DMA_1_1100_gq0p25.recon.AOD.*e**r10724*
########## rucio ls mc16_13TeV.308714.PowhegPy8EG_A14N23LO_DMA_1_1350_gq0p25.recon.AOD.*e**r10724*
#
#
#
# Obsolete dark matter s-channel
#
########## rucio ls mc16_13TeV.301400.PowhegPythia8EvtGen_A14NNPDF23LO_DMA_1_10_gq0p25.recon.AOD.*e**r10724*
########## rucio ls mc16_13TeV.301401.PowhegPythia8EvtGen_A14NNPDF23LO_DMA_1_20_gq0p25.recon.AOD.*e**r10724*
########## rucio ls mc16_13TeV.301402.PowhegPythia8EvtGen_A14NNPDF23LO_DMA_1_50_gq0p25.recon.AOD.*e**r10724*
########## rucio ls mc16_13TeV.301403.PowhegPythia8EvtGen_A14NNPDF23LO_DMA_1_100_gq0p25.recon.AOD.*e**r10724*
########## rucio ls mc16_13TeV.301404.PowhegPythia8EvtGen_A14NNPDF23LO_DMA_1_200_gq0p25.recon.AOD.*e**r10724*
########## rucio ls mc16_13TeV.301405.PowhegPythia8EvtGen_A14NNPDF23LO_DMA_1_300_gq0p25.recon.AOD.*e**r10724*
########## rucio ls mc16_13TeV.301406.PowhegPythia8EvtGen_A14NNPDF23LO_DMA_1_500_gq0p25.recon.AOD.*e**r10724*
########## rucio ls mc16_13TeV.301407.PowhegPythia8EvtGen_A14NNPDF23LO_DMA_1_1000_gq0p25.recon.AOD.*e**r10724*
########## rucio ls mc16_13TeV.301408.PowhegPythia8EvtGen_A14NNPDF23LO_DMA_1_2000_gq0p25.recon.AOD.*e**r10724*
########## rucio ls mc16_13TeV.301409.PowhegPythia8EvtGen_A14NNPDF23LO_DMA_1_10000_gq0p25.recon.AOD.*e**r10724*
########## rucio ls mc16_13TeV.301410.PowhegPythia8EvtGen_A14NNPDF23LO_DMA_10_10_gq0p25.recon.AOD.*e**r10724*
########## rucio ls mc16_13TeV.301411.PowhegPythia8EvtGen_A14NNPDF23LO_DMA_50_10_gq0p25.recon.AOD.*e**r10724*
########## rucio ls mc16_13TeV.301412.PowhegPythia8EvtGen_A14NNPDF23LO_DMA_150_10_gq0p25.recon.AOD.*e**r10724*
########## rucio ls mc16_13TeV.301413.PowhegPythia8EvtGen_A14NNPDF23LO_DMA_500_10_gq0p25.recon.AOD.*e**r10724*
########## rucio ls mc16_13TeV.301414.PowhegPythia8EvtGen_A14NNPDF23LO_DMA_1000_10_gq0p25.recon.AOD.*e**r10724*
########## rucio ls mc16_13TeV.301415.PowhegPythia8EvtGen_A14NNPDF23LO_DMA_10_15_gq0p25.recon.AOD.*e**r10724*
########## rucio ls mc16_13TeV.301416.PowhegPythia8EvtGen_A14NNPDF23LO_DMA_10_50_gq0p25.recon.AOD.*e**r10724*
########## rucio ls mc16_13TeV.301417.PowhegPythia8EvtGen_A14NNPDF23LO_DMA_10_100_gq0p25.recon.AOD.*e**r10724*
########## rucio ls mc16_13TeV.301418.PowhegPythia8EvtGen_A14NNPDF23LO_DMA_50_50_gq0p25.recon.AOD.*e**r10724*
########## rucio ls mc16_13TeV.301419.PowhegPythia8EvtGen_A14NNPDF23LO_DMA_50_95_gq0p25.recon.AOD.*e**r10724*
########## rucio ls mc16_13TeV.301420.PowhegPythia8EvtGen_A14NNPDF23LO_DMA_50_200_gq0p25.recon.AOD.*e**r10724*
########## rucio ls mc16_13TeV.301421.PowhegPythia8EvtGen_A14NNPDF23LO_DMA_50_300_gq0p25.recon.AOD.*e**r10724*
########## rucio ls mc16_13TeV.301422.PowhegPythia8EvtGen_A14NNPDF23LO_DMA_150_200_gq0p25.recon.AOD.*e**r10724*
########## rucio ls mc16_13TeV.301423.PowhegPythia8EvtGen_A14NNPDF23LO_DMA_150_295_gq0p25.recon.AOD.*e**r10724*
########## rucio ls mc16_13TeV.301424.PowhegPythia8EvtGen_A14NNPDF23LO_DMA_150_500_gq0p25.recon.AOD.*e**r10724*
########## rucio ls mc16_13TeV.301425.PowhegPythia8EvtGen_A14NNPDF23LO_DMA_150_1000_gq0p25.recon.AOD.*e**r10724*
# NOTE: FULL SIM DUPLICATE BELOW
#
########## rucio ls mc16_13TeV.301425.PowhegPythia8EvtGen_A14NNPDF23LO_DMA_150_1000_gq0p25.recon.AOD.*e**r10724*
########## rucio ls mc16_13TeV.301426.PowhegPythia8EvtGen_A14NNPDF23LO_DMA_500_500_gq0p25.recon.AOD.*e**r10724*
########## rucio ls mc16_13TeV.301427.PowhegPythia8EvtGen_A14NNPDF23LO_DMA_500_995_gq0p25.recon.AOD.*e**r10724*
########## rucio ls mc16_13TeV.301428.PowhegPythia8EvtGen_A14NNPDF23LO_DMA_500_2000_gq0p25.recon.AOD.*e**r10724*
########## rucio ls mc16_13TeV.301429.PowhegPythia8EvtGen_A14NNPDF23LO_DMA_500_10000_gq0p25.recon.AOD.*e**r10724*
########## rucio ls mc16_13TeV.301430.PowhegPythia8EvtGen_A14NNPDF23LO_DMA_1000_1000_gq0p25.recon.AOD.*e**r10724*
########## rucio ls mc16_13TeV.301431.PowhegPythia8EvtGen_A14NNPDF23LO_DMA_1000_1995_gq0p25.recon.AOD.*e**r10724*
########## rucio ls mc16_13TeV.301432.PowhegPythia8EvtGen_A14NNPDF23LO_DMA_1000_10000_gq0p25.recon.AOD.*e**r10724*
########## rucio ls mc16_13TeV.301433.PowhegPythia8EvtGen_A14NNPDF23LO_DMA_10_10000_gq0p25.recon.AOD.*e**r10724*
########## rucio ls mc16_13TeV.301434.PowhegPythia8EvtGen_A14NNPDF23LO_DMA_50_10000_gq0p25.recon.AOD.*e**r10724*
########## rucio ls mc16_13TeV.301435.PowhegPythia8EvtGen_A14NNPDF23LO_DMA_150_10000_gq0p25.recon.AOD.*e**r10724*
#
########## rucio ls mc16_13TeV.301469.PowhegPythia8EvtGen_A14NNPDF23LO_DMA_150_1000_g0p1.recon.AOD.*e**r10724*
########## rucio ls mc16_13TeV.301470.PowhegPythia8EvtGen_A14NNPDF23LO_DMA_150_1000_g0p25.recon.AOD.*e**r10724*
########## rucio ls mc16_13TeV.301471.PowhegPythia8EvtGen_A14NNPDF23LO_DMA_150_1000_g0p5.recon.AOD.*e**r10724*
########## rucio ls mc16_13TeV.301472.PowhegPythia8EvtGen_A14NNPDF23LO_DMA_150_1000_g0p75.recon.AOD.*e**r10724*
########## rucio ls mc16_13TeV.301473.PowhegPythia8EvtGen_A14NNPDF23LO_DMA_150_1000_g1.recon.AOD.*e**r10724*
########## rucio ls mc16_13TeV.301474.PowhegPythia8EvtGen_A14NNPDF23LO_DMA_150_1000_g1p25.recon.AOD.*e**r10724*
########## rucio ls mc16_13TeV.301475.PowhegPythia8EvtGen_A14NNPDF23LO_DMA_150_1000_g1p5.recon.AOD.*e**r10724*
#
#
#
# Dark Matter Scalar
#
########## rucio ls mc16_13TeV.308725.PowhegPy8EG_A14N23LO_DMP_tloop_4_10_g1.recon.AOD.*e**r10724*
########## rucio ls mc16_13TeV.308726.PowhegPy8EG_A14N23LO_DMP_tloop_300_10_g1.recon.AOD.*e**r10724*
########## rucio ls mc16_13TeV.308727.PowhegPy8EG_A14N23LO_DMP_tloop_1_150_g1.recon.AOD.*e**r10724*
########## rucio ls mc16_13TeV.308728.PowhegPy8EG_A14N23LO_DMP_tloop_1_250_g1.recon.AOD.*e**r10724*
########## rucio ls mc16_13TeV.308729.PowhegPy8EG_A14N23LO_DMP_tloop_1_350_g1.recon.AOD.*e**r10724*
########## rucio ls mc16_13TeV.308730.PowhegPy8EG_A14N23LO_DMP_tloop_1_400_g1.recon.AOD.*e**r10724*
mc16_13TeV.301436.PowhegPythia8EvtGen_A14NNPDF23LO_DMP_tloop_1_10_g1.recon.AOD.e4241_a875_r10724
mc16_13TeV.301437.PowhegPythia8EvtGen_A14NNPDF23LO_DMP_tloop_1_20_g1.recon.AOD.e4241_a875_r10724
mc16_13TeV.301438.PowhegPythia8EvtGen_A14NNPDF23LO_DMP_tloop_1_50_g1.recon.AOD.e4241_a875_r10724
mc16_13TeV.301439.PowhegPythia8EvtGen_A14NNPDF23LO_DMP_tloop_1_100_g1.recon.AOD.e4241_a875_r10724
mc16_13TeV.301440.PowhegPythia8EvtGen_A14NNPDF23LO_DMP_tloop_1_200_g1.recon.AOD.e4241_a875_r10724
mc16_13TeV.301441.PowhegPythia8EvtGen_A14NNPDF23LO_DMP_tloop_1_300_g1.recon.AOD.e4241_a875_r10724
mc16_13TeV.301442.PowhegPythia8EvtGen_A14NNPDF23LO_DMP_tloop_1_500_g1.recon.AOD.e4241_a875_r10724
mc16_13TeV.301443.PowhegPythia8EvtGen_A14NNPDF23LO_DMP_tloop_1_1000_g1.recon.AOD.e4241_a875_r10724
mc16_13TeV.301444.PowhegPythia8EvtGen_A14NNPDF23LO_DMP_tloop_1_10000_g1.recon.AOD.e4241_a875_r10724
mc16_13TeV.301445.PowhegPythia8EvtGen_A14NNPDF23LO_DMP_tloop_10_10_g1.recon.AOD.e4241_a875_r10724
mc16_13TeV.301446.PowhegPythia8EvtGen_A14NNPDF23LO_DMP_tloop_50_10_g1.recon.AOD.e4241_a875_r10724
mc16_13TeV.301447.PowhegPythia8EvtGen_A14NNPDF23LO_DMP_tloop_150_10_g1.recon.AOD.e4241_a875_r10724
mc16_13TeV.301448.PowhegPythia8EvtGen_A14NNPDF23LO_DMP_tloop_500_10_g1.recon.AOD.e4241_a875_r10724
########## rucio ls mc16_13TeV.301449.PowhegPythia8EvtGen_A14NNPDF23LO_DMP_tloop_1000_10_g1.recon.AOD.*e**r10724*
mc16_13TeV.301450.PowhegPythia8EvtGen_A14NNPDF23LO_DMP_tloop_10_15_g1.recon.AOD.e4241_a875_r10724
mc16_13TeV.301451.PowhegPythia8EvtGen_A14NNPDF23LO_DMP_tloop_10_50_g1.recon.AOD.e4241_a875_r10724
mc16_13TeV.301452.PowhegPythia8EvtGen_A14NNPDF23LO_DMP_tloop_10_100_g1.recon.AOD.e4241_a875_r10724
mc16_13TeV.301453.PowhegPythia8EvtGen_A14NNPDF23LO_DMP_tloop_50_50_g1.recon.AOD.e4241_a875_r10724
mc16_13TeV.301454.PowhegPythia8EvtGen_A14NNPDF23LO_DMP_tloop_50_95_g1.recon.AOD.e4241_a875_r10724
mc16_13TeV.301455.PowhegPythia8EvtGen_A14NNPDF23LO_DMP_tloop_50_200_g1.recon.AOD.e4241_a875_r10724
mc16_13TeV.301456.PowhegPythia8EvtGen_A14NNPDF23LO_DMP_tloop_50_300_g1.recon.AOD.e4241_a875_r10724
mc16_13TeV.301456.PowhegPythia8EvtGen_A14NNPDF23LO_DMP_tloop_50_300_g1.recon.AOD.e4241_a875_r10724
mc16_13TeV.301457.PowhegPythia8EvtGen_A14NNPDF23LO_DMP_tloop_150_200_g1.recon.AOD.e4241_a875_r10724
mc16_13TeV.301458.PowhegPythia8EvtGen_A14NNPDF23LO_DMP_tloop_150_295_g1.recon.AOD.e4241_a875_r10724
mc16_13TeV.301459.PowhegPythia8EvtGen_A14NNPDF23LO_DMP_tloop_150_500_g1.recon.AOD.e4241_a875_r10724
mc16_13TeV.301460.PowhegPythia8EvtGen_A14NNPDF23LO_DMP_tloop_150_1000_g1.recon.AOD.e4241_a875_r10724
mc16_13TeV.301461.PowhegPythia8EvtGen_A14NNPDF23LO_DMP_tloop_500_500_g1.recon.AOD.e4241_a875_r10724
mc16_13TeV.301462.PowhegPythia8EvtGen_A14NNPDF23LO_DMP_tloop_500_995_g1.recon.AOD.e4241_a875_r10724
########## rucio ls mc16_13TeV.301463.PowhegPythia8EvtGen_A14NNPDF23LO_DMP_tloop_500_10000_g1.recon.AOD.*e**r10724*
########## rucio ls mc16_13TeV.301464.PowhegPythia8EvtGen_A14NNPDF23LO_DMP_tloop_1000_1000_g1.recon.AOD.*e**r10724*
mc16_13TeV.301465.PowhegPythia8EvtGen_A14NNPDF23LO_DMP_tloop_1000_10000_g1.recon.AOD.e4241_a875_r10724
########## rucio ls mc16_13TeV.301466.PowhegPythia8EvtGen_A14NNPDF23LO_DMP_tloop_10_10000_g1.recon.AOD.*e**r10724*
########## rucio ls mc16_13TeV.301467.PowhegPythia8EvtGen_A14NNPDF23LO_DMP_tloop_50_10000_g1.recon.AOD.*e**r10724*
########## rucio ls mc16_13TeV.301468.PowhegPythia8EvtGen_A14NNPDF23LO_DMP_tloop_150_10000_g1.recon.AOD.*e**r10724*
########## rucio ls mc16_13TeV.301476.PowhegPythia8EvtGen_A14NNPDF23LO_DMP_tloop_50_300_g0p1.recon.AOD.*e**r10724*
########## rucio ls mc16_13TeV.301477.PowhegPythia8EvtGen_A14NNPDF23LO_DMP_tloop_50_300_g2.recon.AOD.*e**r10724*
########## rucio ls mc16_13TeV.301478.PowhegPythia8EvtGen_A14NNPDF23LO_DMP_tloop_50_300_g3.recon.AOD.*e**r10724*
########## rucio ls mc16_13TeV.301479.PowhegPythia8EvtGen_A14NNPDF23LO_DMP_tloop_50_300_g4.recon.AOD.*e**r10724*
########## rucio ls mc16_13TeV.301480.PowhegPythia8EvtGen_A14NNPDF23LO_DMP_tloop_50_300_g5.recon.AOD.*e**r10724*
########## rucio ls mc16_13TeV.301481.PowhegPythia8EvtGen_A14NNPDF23LO_DMP_tloop_50_300_g6.recon.AOD.*e**r10724*
#
#
#
# Dark Matter, t-channel
#
########## rucio ls mc16_13TeV.308109.MGPy8EG_A14N23LO_dmT_met100_m1_M100_g0p25_s1.recon.AOD.*e**r10724*
########## rucio ls mc16_13TeV.308110.MGPy8EG_A14N23LO_dmT_met100_m1_M100_g0p25_s2.recon.AOD.*e**r10724*
########## rucio ls mc16_13TeV.308111.MGPy8EG_A14N23LO_dmT_met100_m1_M100_g0p25_s3.recon.AOD.*e**r10724*
########## rucio ls mc16_13TeV.308112.MGPy8EG_A14N23LO_dmT_met100_m1_M100_g1_s1.recon.AOD.*e**r10724*
########## rucio ls mc16_13TeV.308113.MGPy8EG_A14N23LO_dmT_met100_m1_M100_g1_s2.recon.AOD.*e**r10724*
########## rucio ls mc16_13TeV.308114.MGPy8EG_A14N23LO_dmT_met100_m1_M100_g1_s3.recon.AOD.*e**r10724*
########## rucio ls mc16_13TeV.308115.MGPy8EG_A14N23LO_dmT_met100_m1_M300_g0p25_s1.recon.AOD.*e**r10724*
########## rucio ls mc16_13TeV.308116.MGPy8EG_A14N23LO_dmT_met100_m1_M300_g0p25_s2.recon.AOD.*e**r10724*
########## rucio ls mc16_13TeV.308117.MGPy8EG_A14N23LO_dmT_met100_m1_M300_g0p25_s3.recon.AOD.*e**r10724*
########## rucio ls mc16_13TeV.308118.MGPy8EG_A14N23LO_dmT_met100_m1_M300_g1_s1.recon.AOD.*e**r10724*
########## rucio ls mc16_13TeV.308119.MGPy8EG_A14N23LO_dmT_met100_m1_M300_g1_s2.recon.AOD.*e**r10724*
########## rucio ls mc16_13TeV.308120.MGPy8EG_A14N23LO_dmT_met100_m1_M300_g1_s3.recon.AOD.*e**r10724*
########## rucio ls mc16_13TeV.308121.MGPy8EG_A14N23LO_dmT_met100_m1_M500_g0p25_s1.recon.AOD.*e**r10724*
########## rucio ls mc16_13TeV.308122.MGPy8EG_A14N23LO_dmT_met100_m1_M500_g0p25_s2.recon.AOD.*e**r10724*
########## rucio ls mc16_13TeV.308123.MGPy8EG_A14N23LO_dmT_met100_m1_M500_g0p25_s3.recon.AOD.*e**r10724*
########## rucio ls mc16_13TeV.308124.MGPy8EG_A14N23LO_dmT_met100_m1_M500_g1_s1.recon.AOD.*e**r10724*
########## rucio ls mc16_13TeV.308125.MGPy8EG_A14N23LO_dmT_met100_m1_M500_g1_s2.recon.AOD.*e**r10724*
########## rucio ls mc16_13TeV.308126.MGPy8EG_A14N23LO_dmT_met100_m1_M500_g1_s3.recon.AOD.*e**r10724*
########## rucio ls mc16_13TeV.308127.MGPy8EG_A14N23LO_dmT_met100_m1_M1000_g0p25_s1.recon.AOD.*e**r10724*
########## rucio ls mc16_13TeV.308128.MGPy8EG_A14N23LO_dmT_met100_m1_M1000_g0p25_s2.recon.AOD.*e**r10724*
########## rucio ls mc16_13TeV.308129.MGPy8EG_A14N23LO_dmT_met100_m1_M1000_g0p25_s3.recon.AOD.*e**r10724*
########## rucio ls mc16_13TeV.308130.MGPy8EG_A14N23LO_dmT_met100_m1_M1000_g1_s1.recon.AOD.*e**r10724*
########## rucio ls mc16_13TeV.308131.MGPy8EG_A14N23LO_dmT_met100_m1_M1000_g1_s2.recon.AOD.*e**r10724*
########## rucio ls mc16_13TeV.308132.MGPy8EG_A14N23LO_dmT_met100_m1_M1000_g1_s3.recon.AOD.*e**r10724*
########## rucio ls mc16_13TeV.308133.MGPy8EG_A14N23LO_dmT_met100_m1_M1500_g0p25_s1.recon.AOD.*e**r10724*
########## rucio ls mc16_13TeV.308134.MGPy8EG_A14N23LO_dmT_met100_m1_M1500_g0p25_s2.recon.AOD.*e**r10724*
########## rucio ls mc16_13TeV.308135.MGPy8EG_A14N23LO_dmT_met100_m1_M1500_g0p25_s3.recon.AOD.*e**r10724*
mc16_13TeV.308136.MGPy8EG_A14N23LO_dmT_met100_m1_M1500_g1_s1.recon.AOD.e5847_a875_r10724
mc16_13TeV.308137.MGPy8EG_A14N23LO_dmT_met100_m1_M1500_g1_s2.recon.AOD.e5847_a875_r10724
mc16_13TeV.308138.MGPy8EG_A14N23LO_dmT_met100_m1_M1500_g1_s3.recon.AOD.e5847_a875_r10724
########## rucio ls mc16_13TeV.308139.MGPy8EG_A14N23LO_dmT_met100_m1_M2000_g0p25_s1.recon.AOD.*e**r10724*
########## rucio ls mc16_13TeV.308140.MGPy8EG_A14N23LO_dmT_met100_m1_M2000_g0p25_s2.recon.AOD.*e**r10724*
########## rucio ls mc16_13TeV.308141.MGPy8EG_A14N23LO_dmT_met100_m1_M2000_g0p25_s3.recon.AOD.*e**r10724*
mc16_13TeV.308142.MGPy8EG_A14N23LO_dmT_met100_m1_M2000_g1_s1.recon.AOD.e5847_a875_r10724
mc16_13TeV.308143.MGPy8EG_A14N23LO_dmT_met100_m1_M2000_g1_s2.recon.AOD.e5847_a875_r10724
mc16_13TeV.308144.MGPy8EG_A14N23LO_dmT_met100_m1_M2000_g1_s3.recon.AOD.e5847_a875_r10724
########## rucio ls mc16_13TeV.308145.MGPy8EG_A14N23LO_dmT_met100_m10_M100_g0p25_s1.recon.AOD.*e**r10724*
########## rucio ls mc16_13TeV.308146.MGPy8EG_A14N23LO_dmT_met100_m10_M100_g0p25_s2.recon.AOD.*e**r10724*
########## rucio ls mc16_13TeV.308147.MGPy8EG_A14N23LO_dmT_met100_m10_M100_g0p25_s3.recon.AOD.*e**r10724*
########## rucio ls mc16_13TeV.308148.MGPy8EG_A14N23LO_dmT_met100_m10_M100_g1_s1.recon.AOD.*e**r10724*
########## rucio ls mc16_13TeV.308149.MGPy8EG_A14N23LO_dmT_met100_m10_M100_g1_s2.recon.AOD.*e**r10724*
########## rucio ls mc16_13TeV.308150.MGPy8EG_A14N23LO_dmT_met100_m10_M100_g1_s3.recon.AOD.*e**r10724*
########## rucio ls mc16_13TeV.308151.MGPy8EG_A14N23LO_dmT_met100_m10_M500_g0p25_s1.recon.AOD.*e**r10724*
########## rucio ls mc16_13TeV.308152.MGPy8EG_A14N23LO_dmT_met100_m10_M500_g0p25_s2.recon.AOD.*e**r10724*
########## rucio ls mc16_13TeV.308153.MGPy8EG_A14N23LO_dmT_met100_m10_M500_g0p25_s3.recon.AOD.*e**r10724*
########## rucio ls mc16_13TeV.308154.MGPy8EG_A14N23LO_dmT_met100_m10_M500_g1_s1.recon.AOD.*e**r10724*
########## rucio ls mc16_13TeV.308155.MGPy8EG_A14N23LO_dmT_met100_m10_M500_g1_s2.recon.AOD.*e**r10724*
########## rucio ls mc16_13TeV.308156.MGPy8EG_A14N23LO_dmT_met100_m10_M500_g1_s3.recon.AOD.*e**r10724*
########## rucio ls mc16_13TeV.308157.MGPy8EG_A14N23LO_dmT_met100_m10_M1000_g0p25_s1.recon.AOD.*e**r10724*
########## rucio ls mc16_13TeV.308158.MGPy8EG_A14N23LO_dmT_met100_m10_M1000_g0p25_s2.recon.AOD.*e**r10724*
########## rucio ls mc16_13TeV.308159.MGPy8EG_A14N23LO_dmT_met100_m10_M1000_g0p25_s3.recon.AOD.*e**r10724*
########## rucio ls mc16_13TeV.308160.MGPy8EG_A14N23LO_dmT_met100_m10_M1000_g1_s1.recon.AOD.*e**r10724*
########## rucio ls mc16_13TeV.308161.MGPy8EG_A14N23LO_dmT_met100_m10_M1000_g1_s2.recon.AOD.*e**r10724*
########## rucio ls mc16_13TeV.308162.MGPy8EG_A14N23LO_dmT_met100_m10_M1000_g1_s3.recon.AOD.*e**r10724*
########## rucio ls mc16_13TeV.308163.MGPy8EG_A14N23LO_dmT_met100_m50_M100_g0p25_s1.recon.AOD.*e**r10724*
########## rucio ls mc16_13TeV.308164.MGPy8EG_A14N23LO_dmT_met100_m50_M100_g0p25_s2.recon.AOD.*e**r10724*
########## rucio ls mc16_13TeV.308165.MGPy8EG_A14N23LO_dmT_met100_m50_M100_g0p25_s3.recon.AOD.*e**r10724*
########## rucio ls mc16_13TeV.308166.MGPy8EG_A14N23LO_dmT_met100_m50_M100_g1_s1.recon.AOD.*e**r10724*
########## rucio ls mc16_13TeV.308167.MGPy8EG_A14N23LO_dmT_met100_m50_M100_g1_s2.recon.AOD.*e**r10724*
########## rucio ls mc16_13TeV.308168.MGPy8EG_A14N23LO_dmT_met100_m50_M100_g1_s3.recon.AOD.*e**r10724*
########## rucio ls mc16_13TeV.308169.MGPy8EG_A14N23LO_dmT_met100_m50_M300_g0p25_s1.recon.AOD.*e**r10724*
########## rucio ls mc16_13TeV.308170.MGPy8EG_A14N23LO_dmT_met100_m50_M300_g0p25_s2.recon.AOD.*e**r10724*
########## rucio ls mc16_13TeV.308171.MGPy8EG_A14N23LO_dmT_met100_m50_M300_g0p25_s3.recon.AOD.*e**r10724*
########## rucio ls mc16_13TeV.308172.MGPy8EG_A14N23LO_dmT_met100_m50_M300_g1_s1.recon.AOD.*e**r10724*
########## rucio ls mc16_13TeV.308173.MGPy8EG_A14N23LO_dmT_met100_m50_M300_g1_s2.recon.AOD.*e**r10724*
########## rucio ls mc16_13TeV.308174.MGPy8EG_A14N23LO_dmT_met100_m50_M300_g1_s3.recon.AOD.*e**r10724*
########## rucio ls mc16_13TeV.308175.MGPy8EG_A14N23LO_dmT_met100_m50_M500_g0p25_s1.recon.AOD.*e**r10724*
########## rucio ls mc16_13TeV.308176.MGPy8EG_A14N23LO_dmT_met100_m50_M500_g0p25_s2.recon.AOD.*e**r10724*
########## rucio ls mc16_13TeV.308177.MGPy8EG_A14N23LO_dmT_met100_m50_M500_g0p25_s3.recon.AOD.*e**r10724*
########## rucio ls mc16_13TeV.308178.MGPy8EG_A14N23LO_dmT_met100_m50_M500_g1_s1.recon.AOD.*e**r10724*
########## rucio ls mc16_13TeV.308179.MGPy8EG_A14N23LO_dmT_met100_m50_M500_g1_s2.recon.AOD.*e**r10724*
########## rucio ls mc16_13TeV.308180.MGPy8EG_A14N23LO_dmT_met100_m50_M500_g1_s3.recon.AOD.*e**r10724*
########## rucio ls mc16_13TeV.308181.MGPy8EG_A14N23LO_dmT_met100_m50_M1000_g0p25_s1.recon.AOD.*e**r10724*
########## rucio ls mc16_13TeV.308182.MGPy8EG_A14N23LO_dmT_met100_m50_M1000_g0p25_s2.recon.AOD.*e**r10724*
########## rucio ls mc16_13TeV.308183.MGPy8EG_A14N23LO_dmT_met100_m50_M1000_g0p25_s3.recon.AOD.*e**r10724*
########## rucio ls mc16_13TeV.308184.MGPy8EG_A14N23LO_dmT_met100_m50_M1000_g1_s1.recon.AOD.*e**r10724*
########## rucio ls mc16_13TeV.308185.MGPy8EG_A14N23LO_dmT_met100_m50_M1000_g1_s2.recon.AOD.*e**r10724*
########## rucio ls mc16_13TeV.308186.MGPy8EG_A14N23LO_dmT_met100_m50_M1000_g1_s3.recon.AOD.*e**r10724*
########## rucio ls mc16_13TeV.308187.MGPy8EG_A14N23LO_dmT_met100_m150_M155_g0p25_s1.recon.AOD.*e**r10724*
########## rucio ls mc16_13TeV.308188.MGPy8EG_A14N23LO_dmT_met100_m150_M155_g0p25_s2.recon.AOD.*e**r10724*
########## rucio ls mc16_13TeV.308189.MGPy8EG_A14N23LO_dmT_met100_m150_M155_g0p25_s3.recon.AOD.*e**r10724*
mc16_13TeV.308190.MGPy8EG_A14N23LO_dmT_met100_m150_M155_g1_s1.recon.AOD.e5847_a875_r10724
mc16_13TeV.308191.MGPy8EG_A14N23LO_dmT_met100_m150_M155_g1_s2.recon.AOD.e5847_a875_r10724
mc16_13TeV.308192.MGPy8EG_A14N23LO_dmT_met100_m150_M155_g1_s3.recon.AOD.e5847_a875_r10724
########## rucio ls mc16_13TeV.308193.MGPy8EG_A14N23LO_dmT_met100_m150_M300_g0p25_s1.recon.AOD.*e**r10724*
########## rucio ls mc16_13TeV.308194.MGPy8EG_A14N23LO_dmT_met100_m150_M300_g0p25_s2.recon.AOD.*e**r10724*
########## rucio ls mc16_13TeV.308195.MGPy8EG_A14N23LO_dmT_met100_m150_M300_g0p25_s3.recon.AOD.*e**r10724*
########## rucio ls mc16_13TeV.308196.MGPy8EG_A14N23LO_dmT_met100_m150_M300_g1_s1.recon.AOD.*e**r10724*
########## rucio ls mc16_13TeV.308197.MGPy8EG_A14N23LO_dmT_met100_m150_M300_g1_s2.recon.AOD.*e**r10724*
########## rucio ls mc16_13TeV.308198.MGPy8EG_A14N23LO_dmT_met100_m150_M300_g1_s3.recon.AOD.*e**r10724*
########## rucio ls mc16_13TeV.308199.MGPy8EG_A14N23LO_dmT_met100_m150_M500_g0p25_s1.recon.AOD.*e**r10724*
########## rucio ls mc16_13TeV.308200.MGPy8EG_A14N23LO_dmT_met100_m150_M500_g0p25_s2.recon.AOD.*e**r10724*
########## rucio ls mc16_13TeV.308201.MGPy8EG_A14N23LO_dmT_met100_m150_M500_g0p25_s3.recon.AOD.*e**r10724*
########## rucio ls mc16_13TeV.308202.MGPy8EG_A14N23LO_dmT_met100_m150_M500_g1_s1.recon.AOD.*e**r10724*
########## rucio ls mc16_13TeV.308203.MGPy8EG_A14N23LO_dmT_met100_m150_M500_g1_s2.recon.AOD.*e**r10724*
########## rucio ls mc16_13TeV.308204.MGPy8EG_A14N23LO_dmT_met100_m150_M500_g1_s3.recon.AOD.*e**r10724*
########## rucio ls mc16_13TeV.308205.MGPy8EG_A14N23LO_dmT_met100_m150_M1000_g0p25_s1.recon.AOD.*e**r10724*
########## rucio ls mc16_13TeV.308206.MGPy8EG_A14N23LO_dmT_met100_m150_M1000_g0p25_s2.recon.AOD.*e**r10724*
########## rucio ls mc16_13TeV.308207.MGPy8EG_A14N23LO_dmT_met100_m150_M1000_g0p25_s3.recon.AOD.*e**r10724*
mc16_13TeV.308208.MGPy8EG_A14N23LO_dmT_met100_m150_M1000_g1_s1.recon.AOD.e5847_a875_r10724
mc16_13TeV.308209.MGPy8EG_A14N23LO_dmT_met100_m150_M1000_g1_s2.recon.AOD.e5847_a875_r10724
mc16_13TeV.308210.MGPy8EG_A14N23LO_dmT_met100_m150_M1000_g1_s3.recon.AOD.e5847_a875_r10724
########## rucio ls mc16_13TeV.308211.MGPy8EG_A14N23LO_dmT_met100_m150_M2000_g0p25_s1.recon.AOD.*e**r10724*
########## rucio ls mc16_13TeV.308212.MGPy8EG_A14N23LO_dmT_met100_m150_M2000_g0p25_s2.recon.AOD.*e**r10724*
########## rucio ls mc16_13TeV.308213.MGPy8EG_A14N23LO_dmT_met100_m150_M2000_g0p25_s3.recon.AOD.*e**r10724*
mc16_13TeV.308214.MGPy8EG_A14N23LO_dmT_met100_m150_M2000_g1_s1.recon.AOD.e5847_a875_r10724
mc16_13TeV.308215.MGPy8EG_A14N23LO_dmT_met100_m150_M2000_g1_s2.recon.AOD.e5847_a875_r10724
mc16_13TeV.308216.MGPy8EG_A14N23LO_dmT_met100_m150_M2000_g1_s3.recon.AOD.e5847_a875_r10724
########## rucio ls mc16_13TeV.308217.MGPy8EG_A14N23LO_dmT_met100_m500_M550_g0p25_s1.recon.AOD.*e**r10724*
########## rucio ls mc16_13TeV.308218.MGPy8EG_A14N23LO_dmT_met100_m500_M550_g0p25_s2.recon.AOD.*e**r10724*
########## rucio ls mc16_13TeV.308219.MGPy8EG_A14N23LO_dmT_met100_m500_M550_g0p25_s3.recon.AOD.*e**r10724*
mc16_13TeV.308220.MGPy8EG_A14N23LO_dmT_met100_m500_M550_g1_s1.recon.AOD.e5847_a875_r10724
mc16_13TeV.308221.MGPy8EG_A14N23LO_dmT_met100_m500_M550_g1_s2.recon.AOD.e5847_a875_r10724
mc16_13TeV.308222.MGPy8EG_A14N23LO_dmT_met100_m500_M550_g1_s3.recon.AOD.e5847_a875_r10724
########## rucio ls mc16_13TeV.308223.MGPy8EG_A14N23LO_dmT_met100_m500_M1000_g0p25_s1.recon.AOD.*e**r10724*
########## rucio ls mc16_13TeV.308224.MGPy8EG_A14N23LO_dmT_met100_m500_M1000_g0p25_s2.recon.AOD.*e**r10724*
########## rucio ls mc16_13TeV.308225.MGPy8EG_A14N23LO_dmT_met100_m500_M1000_g0p25_s3.recon.AOD.*e**r10724*
mc16_13TeV.308226.MGPy8EG_A14N23LO_dmT_met100_m500_M1000_g1_s1.recon.AOD.e5847_a875_r10724
mc16_13TeV.308227.MGPy8EG_A14N23LO_dmT_met100_m500_M1000_g1_s2.recon.AOD.e5847_a875_r10724
mc16_13TeV.308228.MGPy8EG_A14N23LO_dmT_met100_m500_M1000_g1_s3.recon.AOD.e5847_a875_r10724
########## rucio ls mc16_13TeV.308229.MGPy8EG_A14N23LO_dmT_met100_m500_M1500_g0p25_s1.recon.AOD.*e**r10724*
########## rucio ls mc16_13TeV.308230.MGPy8EG_A14N23LO_dmT_met100_m500_M1500_g0p25_s2.recon.AOD.*e**r10724*
########## rucio ls mc16_13TeV.308231.MGPy8EG_A14N23LO_dmT_met100_m500_M1500_g0p25_s3.recon.AOD.*e**r10724*
mc16_13TeV.308232.MGPy8EG_A14N23LO_dmT_met100_m500_M1500_g1_s1.recon.AOD.e5847_a875_r10724
mc16_13TeV.308233.MGPy8EG_A14N23LO_dmT_met100_m500_M1500_g1_s2.recon.AOD.e5847_a875_r10724
mc16_13TeV.308234.MGPy8EG_A14N23LO_dmT_met100_m500_M1500_g1_s3.recon.AOD.e5847_a875_r10724
########## rucio ls mc16_13TeV.308235.MGPy8EG_A14N23LO_dmT_met100_m500_M2000_g0p25_s1.recon.AOD.*e**r10724*
########## rucio ls mc16_13TeV.308236.MGPy8EG_A14N23LO_dmT_met100_m500_M2000_g0p25_s2.recon.AOD.*e**r10724*
########## rucio ls mc16_13TeV.308237.MGPy8EG_A14N23LO_dmT_met100_m500_M2000_g0p25_s3.recon.AOD.*e**r10724*
mc16_13TeV.308238.MGPy8EG_A14N23LO_dmT_met100_m500_M2000_g1_s1.recon.AOD.e5847_a875_r10724
mc16_13TeV.308239.MGPy8EG_A14N23LO_dmT_met100_m500_M2000_g1_s2.recon.AOD.e5847_a875_r10724
mc16_13TeV.308240.MGPy8EG_A14N23LO_dmT_met100_m500_M2000_g1_s3.recon.AOD.e5847_a875_r10724
########## rucio ls mc16_13TeV.308241.MGPy8EG_A14N23LO_dmT_met100_m700_M750_g0p25_s1.recon.AOD.*e**r10724*
########## rucio ls mc16_13TeV.308242.MGPy8EG_A14N23LO_dmT_met100_m700_M750_g0p25_s2.recon.AOD.*e**r10724*
########## rucio ls mc16_13TeV.308243.MGPy8EG_A14N23LO_dmT_met100_m700_M750_g0p25_s3.recon.AOD.*e**r10724*
mc16_13TeV.308244.MGPy8EG_A14N23LO_dmT_met100_m700_M750_g1_s1.recon.AOD.e5847_a875_r10724
mc16_13TeV.308245.MGPy8EG_A14N23LO_dmT_met100_m700_M750_g1_s2.recon.AOD.e5847_a875_r10724
mc16_13TeV.308246.MGPy8EG_A14N23LO_dmT_met100_m700_M750_g1_s3.recon.AOD.e5847_a875_r10724
########## rucio ls mc16_13TeV.308247.MGPy8EG_A14N23LO_dmT_met100_m1000_M1100_g0p25_s1.recon.AOD.*e**r10724*
########## rucio ls mc16_13TeV.308248.MGPy8EG_A14N23LO_dmT_met100_m1000_M1100_g0p25_s2.recon.AOD.*e**r10724*
########## rucio ls mc16_13TeV.308249.MGPy8EG_A14N23LO_dmT_met100_m1000_M1100_g0p25_s3.recon.AOD.*e**r10724*
mc16_13TeV.308250.MGPy8EG_A14N23LO_dmT_met100_m1000_M1100_g1_s1.recon.AOD.e5847_a875_r10724
mc16_13TeV.308251.MGPy8EG_A14N23LO_dmT_met100_m1000_M1100_g1_s2.recon.AOD.e5847_a875_r10724
mc16_13TeV.308252.MGPy8EG_A14N23LO_dmT_met100_m1000_M1100_g1_s3.recon.AOD.e5847_a875_r10724
########## rucio ls mc16_13TeV.308253.MGPy8EG_A14N23LO_dmT_met100_m1000_M2000_g0p25_s1.recon.AOD.*e**r10724*
########## rucio ls mc16_13TeV.308254.MGPy8EG_A14N23LO_dmT_met100_m1000_M2000_g0p25_s2.recon.AOD.*e**r10724*
########## rucio ls mc16_13TeV.308255.MGPy8EG_A14N23LO_dmT_met100_m1000_M2000_g0p25_s3.recon.AOD.*e**r10724*
mc16_13TeV.308256.MGPy8EG_A14N23LO_dmT_met100_m1000_M2000_g1_s1.recon.AOD.e5847_a875_r10724
mc16_13TeV.308257.MGPy8EG_A14N23LO_dmT_met100_m1000_M2000_g1_s2.recon.AOD.e5847_a875_r10724
mc16_13TeV.308258.MGPy8EG_A14N23LO_dmT_met100_m1000_M2000_g1_s3.recon.AOD.e5847_a875_r10724
#
mc16_13TeV.308629.MGPy8EG_A14N23LO_dmT_met100_m550_M600_g1_s1.recon.AOD.e6020_a875_r10724
mc16_13TeV.308630.MGPy8EG_A14N23LO_dmT_met100_m550_M600_g1_s2.recon.AOD.e6020_a875_r10724
mc16_13TeV.308631.MGPy8EG_A14N23LO_dmT_met100_m550_M600_g1_s3.recon.AOD.e6191_a875_r10724
mc16_13TeV.308632.MGPy8EG_A14N23LO_dmT_met100_m599_M600_g1_s1.recon.AOD.e6020_a875_r10724
mc16_13TeV.308633.MGPy8EG_A14N23LO_dmT_met100_m599_M600_g1_s2.recon.AOD.e6020_a875_r10724
mc16_13TeV.308634.MGPy8EG_A14N23LO_dmT_met100_m599_M600_g1_s3.recon.AOD.e6020_a875_r10724
#
mc16_13TeV.308637.MGPy8EG_A14N23LO_dmT_met100_m650_M700_g1_s1.recon.AOD.e6020_a875_r10724
mc16_13TeV.308638.MGPy8EG_A14N23LO_dmT_met100_m650_M700_g1_s2.recon.AOD.e6020_a875_r10724
mc16_13TeV.308639.MGPy8EG_A14N23LO_dmT_met100_m650_M700_g1_s3.recon.AOD.e6191_a875_r10724
#
mc16_13TeV.308643.MGPy8EG_A14N23LO_dmT_met100_m600_M750_g1_s1.recon.AOD.e6020_a875_r10724
mc16_13TeV.308644.MGPy8EG_A14N23LO_dmT_met100_m600_M750_g1_s2.recon.AOD.e6020_a875_r10724
mc16_13TeV.308645.MGPy8EG_A14N23LO_dmT_met100_m600_M750_g1_s3.recon.AOD.e6020_a875_r10724
#
mc16_13TeV.308649.MGPy8EG_A14N23LO_dmT_met100_m600_M1000_g1_s1.recon.AOD.e6020_a875_r10724
mc16_13TeV.308650.MGPy8EG_A14N23LO_dmT_met100_m600_M1000_g1_s2.recon.AOD.e6020_a875_r10724
mc16_13TeV.308651.MGPy8EG_A14N23LO_dmT_met100_m600_M1000_g1_s3.recon.AOD.e6020_a875_r10724
mc16_13TeV.308652.MGPy8EG_A14N23LO_dmT_met100_m700_M1000_g1_s1.recon.AOD.e6020_a875_r10724
mc16_13TeV.308653.MGPy8EG_A14N23LO_dmT_met100_m700_M1000_g1_s2.recon.AOD.e6020_a875_r10724
mc16_13TeV.308654.MGPy8EG_A14N23LO_dmT_met100_m700_M1000_g1_s3.recon.AOD.e6020_a875_r10724
mc16_13TeV.308655.MGPy8EG_A14N23LO_dmT_met100_m300_M1500_g1_s1.recon.AOD.e6020_a875_r10724
mc16_13TeV.308656.MGPy8EG_A14N23LO_dmT_met100_m300_M1500_g1_s2.recon.AOD.e6020_a875_r10724
mc16_13TeV.308657.MGPy8EG_A14N23LO_dmT_met100_m300_M1500_g1_s3.recon.AOD.e6020_a875_r10724
mc16_13TeV.308658.MGPy8EG_A14N23LO_dmT_met100_m600_M1500_g1_s1.recon.AOD.e6020_a875_r10724
mc16_13TeV.308659.MGPy8EG_A14N23LO_dmT_met100_m600_M1500_g1_s2.recon.AOD.e6020_a875_r10724
mc16_13TeV.308660.MGPy8EG_A14N23LO_dmT_met100_m600_M1500_g1_s3.recon.AOD.e6020_a875_r10724
mc16_13TeV.308661.MGPy8EG_A14N23LO_dmT_met100_m700_M1500_g1_s1.recon.AOD.e6020_a875_r10724
mc16_13TeV.308662.MGPy8EG_A14N23LO_dmT_met100_m700_M1500_g1_s2.recon.AOD.e6020_a875_r10724
mc16_13TeV.308663.MGPy8EG_A14N23LO_dmT_met100_m700_M1500_g1_s3.recon.AOD.e6020_a875_r10724
mc16_13TeV.308664.MGPy8EG_A14N23LO_dmT_met100_m1_M1700_g1_s1.recon.AOD.e6020_a875_r10724
mc16_13TeV.308665.MGPy8EG_A14N23LO_dmT_met100_m1_M1700_g1_s2.recon.AOD.e6020_a875_r10724
mc16_13TeV.308666.MGPy8EG_A14N23LO_dmT_met100_m1_M1700_g1_s3.recon.AOD.e6020_a875_r10724
mc16_13TeV.308667.MGPy8EG_A14N23LO_dmT_met100_m150_M1700_g1_s1.recon.AOD.e6020_a875_r10724
mc16_13TeV.308668.MGPy8EG_A14N23LO_dmT_met100_m150_M1700_g1_s2.recon.AOD.e6020_a875_r10724
mc16_13TeV.308669.MGPy8EG_A14N23LO_dmT_met100_m150_M1700_g1_s3.recon.AOD.e6020_a875_r10724
mc16_13TeV.308670.MGPy8EG_A14N23LO_dmT_met100_m300_M1700_g1_s1.recon.AOD.e6020_a875_r10724
mc16_13TeV.308671.MGPy8EG_A14N23LO_dmT_met100_m300_M1700_g1_s2.recon.AOD.e6020_a875_r10724
mc16_13TeV.308672.MGPy8EG_A14N23LO_dmT_met100_m300_M1700_g1_s3.recon.AOD.e6020_a875_r10724
mc16_13TeV.308673.MGPy8EG_A14N23LO_dmT_met100_m500_M1700_g1_s1.recon.AOD.e6020_a875_r10724
mc16_13TeV.308674.MGPy8EG_A14N23LO_dmT_met100_m500_M1700_g1_s2.recon.AOD.e6020_a875_r10724
mc16_13TeV.308675.MGPy8EG_A14N23LO_dmT_met100_m500_M1700_g1_s3.recon.AOD.e6020_a875_r10724
mc16_13TeV.308676.MGPy8EG_A14N23LO_dmT_met100_m600_M1700_g1_s1.recon.AOD.e6020_a875_r10724
mc16_13TeV.308677.MGPy8EG_A14N23LO_dmT_met100_m600_M1700_g1_s2.recon.AOD.e6020_a875_r10724
mc16_13TeV.308678.MGPy8EG_A14N23LO_dmT_met100_m600_M1700_g1_s3.recon.AOD.e6020_a875_r10724
mc16_13TeV.308679.MGPy8EG_A14N23LO_dmT_met100_m700_M1700_g1_s1.recon.AOD.e6020_a875_r10724
mc16_13TeV.308680.MGPy8EG_A14N23LO_dmT_met100_m700_M1700_g1_s2.recon.AOD.e6020_a875_r10724
mc16_13TeV.308681.MGPy8EG_A14N23LO_dmT_met100_m700_M1700_g1_s3.recon.AOD.e6020_a875_r10724
mc16_13TeV.308682.MGPy8EG_A14N23LO_dmT_met100_m300_M2000_g1_s1.recon.AOD.e6020_a875_r10724
mc16_13TeV.308683.MGPy8EG_A14N23LO_dmT_met100_m300_M2000_g1_s2.recon.AOD.e6020_a875_r10724
mc16_13TeV.308684.MGPy8EG_A14N23LO_dmT_met100_m300_M2000_g1_s3.recon.AOD.e6020_a875_r10724
mc16_13TeV.308685.MGPy8EG_A14N23LO_dmT_met100_m700_M2000_g1_s1.recon.AOD.e6020_a875_r10724
mc16_13TeV.308686.MGPy8EG_A14N23LO_dmT_met100_m700_M2000_g1_s2.recon.AOD.e6020_a875_r10724
mc16_13TeV.308687.MGPy8EG_A14N23LO_dmT_met100_m700_M2000_g1_s3.recon.AOD.e6020_a875_r10724
mc16_13TeV.308688.MGPy8EG_A14N23LO_dmT_met100_m1_M2200_g1_s1.recon.AOD.e6020_a875_r10724
mc16_13TeV.308689.MGPy8EG_A14N23LO_dmT_met100_m1_M2200_g1_s2.recon.AOD.e6020_a875_r10724
mc16_13TeV.308690.MGPy8EG_A14N23LO_dmT_met100_m1_M2200_g1_s3.recon.AOD.e6020_a875_r10724
mc16_13TeV.308691.MGPy8EG_A14N23LO_dmT_met100_m150_M2200_g1_s1.recon.AOD.e6020_a875_r10724
mc16_13TeV.308692.MGPy8EG_A14N23LO_dmT_met100_m150_M2200_g1_s2.recon.AOD.e6020_a875_r10724
mc16_13TeV.308693.MGPy8EG_A14N23LO_dmT_met100_m150_M2200_g1_s3.recon.AOD.e6020_a875_r10724
mc16_13TeV.308694.MGPy8EG_A14N23LO_dmT_met100_m300_M2200_g1_s1.recon.AOD.e6020_a875_r10724
mc16_13TeV.308695.MGPy8EG_A14N23LO_dmT_met100_m300_M2200_g1_s2.recon.AOD.e6020_a875_r10724
mc16_13TeV.308696.MGPy8EG_A14N23LO_dmT_met100_m300_M2200_g1_s3.recon.AOD.e6020_a875_r10724
mc16_13TeV.308697.MGPy8EG_A14N23LO_dmT_met100_m500_M2200_g1_s1.recon.AOD.e6020_a875_r10724
mc16_13TeV.308698.MGPy8EG_A14N23LO_dmT_met100_m500_M2200_g1_s2.recon.AOD.e6020_a875_r10724
mc16_13TeV.308699.MGPy8EG_A14N23LO_dmT_met100_m500_M2200_g1_s3.recon.AOD.e6020_a875_r10724
mc16_13TeV.308700.MGPy8EG_A14N23LO_dmT_met100_m700_M2200_g1_s1.recon.AOD.e6020_a875_r10724
mc16_13TeV.308701.MGPy8EG_A14N23LO_dmT_met100_m700_M2200_g1_s2.recon.AOD.e6020_a875_r10724
mc16_13TeV.308702.MGPy8EG_A14N23LO_dmT_met100_m700_M2200_g1_s3.recon.AOD.e6020_a875_r10724
mc16_13TeV.308703.MGPy8EG_A14N23LO_dmT_met100_m1_M2500_g1_s1.recon.AOD.e6020_a875_r10724
mc16_13TeV.308704.MGPy8EG_A14N23LO_dmT_met100_m1_M2500_g1_s2.recon.AOD.e6020_a875_r10724
mc16_13TeV.308705.MGPy8EG_A14N23LO_dmT_met100_m1_M2500_g1_s3.recon.AOD.e6191_a875_r10724
mc16_13TeV.308706.MGPy8EG_A14N23LO_dmT_met100_m500_M2500_g1_s1.recon.AOD.e6020_a875_r10724
mc16_13TeV.308707.MGPy8EG_A14N23LO_dmT_met100_m500_M2500_g1_s2.recon.AOD.e6020_a875_r10724
mc16_13TeV.308708.MGPy8EG_A14N23LO_dmT_met100_m500_M2500_g1_s3.recon.AOD.e6020_a875_r10724
mc16_13TeV.308709.MGPy8EG_A14N23LO_dmT_met100_m700_M2500_g1_s1.recon.AOD.e6020_a875_r10724
mc16_13TeV.308710.MGPy8EG_A14N23LO_dmT_met100_m700_M2500_g1_s2.recon.AOD.e6020_a875_r10724
mc16_13TeV.308711.MGPy8EG_A14N23LO_dmT_met100_m700_M2500_g1_s3.recon.AOD.e6020_a875_r10724
#
#
#
# ADD
#
mc16_13TeV.303496.Pythia8EvtGen_A14NNPDF23LO_ADDGraviton_d2MD5300_Jet100.recon.AOD.e4294_a875_r10724
mc16_13TeV.303497.Pythia8EvtGen_A14NNPDF23LO_ADDGraviton_d3MD4100_Jet100.recon.AOD.e4294_a875_r10724
mc16_13TeV.303498.Pythia8EvtGen_A14NNPDF23LO_ADDGraviton_d4MD3600_Jet100.recon.AOD.e4294_a875_r10724
mc16_13TeV.303499.Pythia8EvtGen_A14NNPDF23LO_ADDGraviton_d5MD3200_Jet100.recon.AOD.e4294_a875_r10724
mc16_13TeV.303500.Pythia8EvtGen_A14NNPDF23LO_ADDGraviton_d6MD3000_Jet100.recon.AOD.e4294_a875_r10724
#
#
#
# SUSY
#
########## rucio ls mc16_13TeV.371850.MadGraphPythia8EvtGen_A14NNPDF23LO_SS_direct_400_395_MET100.recon.AOD.*e**r10724*
########## rucio ls mc16_13TeV.371851.MadGraphPythia8EvtGen_A14NNPDF23LO_SS_direct_450_445_MET100.recon.AOD.*e**r10724*
########## rucio ls mc16_13TeV.371852.MadGraphPythia8EvtGen_A14NNPDF23LO_SS_direct_500_495_MET100.recon.AOD.*e**r10724*
mc16_13TeV.371853.MadGraphPythia8EvtGen_A14NNPDF23LO_SS_direct_550_545_MET100.recon.AOD.e3995_a875_r10724
mc16_13TeV.371854.MadGraphPythia8EvtGen_A14NNPDF23LO_SS_direct_600_595_MET100.recon.AOD.e3995_a875_r10724
mc16_13TeV.371855.MadGraphPythia8EvtGen_A14NNPDF23LO_SS_direct_650_645_MET100.recon.AOD.e3995_a875_r10724
mc16_13TeV.371856.MadGraphPythia8EvtGen_A14NNPDF23LO_SS_direct_700_695_MET100.recon.AOD.e3995_a875_r10724
########## rucio ls mc16_13TeV.371857.MadGraphPythia8EvtGen_A14NNPDF23LO_SS_direct_400_385_MET100.recon.AOD.*e**r10724*
########## rucio ls mc16_13TeV.371858.MadGraphPythia8EvtGen_A14NNPDF23LO_SS_direct_450_435_MET100.recon.AOD.*e**r10724*
########## rucio ls mc16_13TeV.371859.MadGraphPythia8EvtGen_A14NNPDF23LO_SS_direct_500_485_MET100.recon.AOD.*e**r10724*
mc16_13TeV.371860.MadGraphPythia8EvtGen_A14NNPDF23LO_SS_direct_550_535_MET100.recon.AOD.e3995_a875_r10724
mc16_13TeV.371861.MadGraphPythia8EvtGen_A14NNPDF23LO_SS_direct_600_585_MET100.recon.AOD.e3995_a875_r10724
mc16_13TeV.371862.MadGraphPythia8EvtGen_A14NNPDF23LO_SS_direct_650_635_MET100.recon.AOD.e3995_a875_r10724
mc16_13TeV.371863.MadGraphPythia8EvtGen_A14NNPDF23LO_SS_direct_700_685_MET100.recon.AOD.e3995_a875_r10724
########## rucio ls mc16_13TeV.371864.MadGraphPythia8EvtGen_A14NNPDF23LO_SS_direct_400_375_MET100.recon.AOD.*e**r10724*
########## rucio ls mc16_13TeV.371865.MadGraphPythia8EvtGen_A14NNPDF23LO_SS_direct_450_425_MET100.recon.AOD.*e**r10724*
########## rucio ls mc16_13TeV.371866.MadGraphPythia8EvtGen_A14NNPDF23LO_SS_direct_500_475_MET100.recon.AOD.*e**r10724*
mc16_13TeV.371867.MadGraphPythia8EvtGen_A14NNPDF23LO_SS_direct_550_525_MET100.recon.AOD.e3995_a875_r10724
mc16_13TeV.371868.MadGraphPythia8EvtGen_A14NNPDF23LO_SS_direct_600_575_MET100.recon.AOD.e3995_a875_r10724
mc16_13TeV.371869.MadGraphPythia8EvtGen_A14NNPDF23LO_SS_direct_650_625_MET100.recon.AOD.e3995_a875_r10724
mc16_13TeV.371870.MadGraphPythia8EvtGen_A14NNPDF23LO_SS_direct_700_675_MET100.recon.AOD.e3995_a875_r10724
mc16_13TeV.370819.MadGraphPythia8EvtGen_A14NNPDF23LO_SS_direct_800_775.recon.AOD.e5352_a875_r10724
mc16_13TeV.370822.MadGraphPythia8EvtGen_A14NNPDF23LO_SS_direct_900_875.recon.AOD.e5352_a875_r10724
mc16_13TeV.370825.MadGraphPythia8EvtGen_A14NNPDF23LO_SS_direct_1000_975.recon.AOD.e5352_a875_r10724
#
#
#
# BB
#
mc16_13TeV.387003.MGPy8EG_A14N_BB_direct_250_230_MET100.recon.AOD.e3994_a875_r10724
mc16_13TeV.387004.MGPy8EG_A14N_BB_direct_250_245_MET100.recon.AOD.e3994_a875_r10724
mc16_13TeV.387005.MGPy8EG_A14N_BB_direct_300_150_MET100.recon.AOD.e3994_a875_r10724
mc16_13TeV.387006.MGPy8EG_A14N_BB_direct_300_280_MET100.recon.AOD.e3994_a875_r10724
mc16_13TeV.387007.MGPy8EG_A14N_BB_direct_300_295_MET100.recon.AOD.e3994_a875_r10724
mc16_13TeV.387008.MGPy8EG_A14N_BB_direct_350_330_MET100.recon.AOD.e3994_a875_r10724
mc16_13TeV.387009.MGPy8EG_A14N_BB_direct_350_345_MET100.recon.AOD.e3994_a875_r10724
mc16_13TeV.387010.MGPy8EG_A14N_BB_direct_400_1.recon.AOD.e3994_a875_r10724
mc16_13TeV.387011.MGPy8EG_A14N_BB_direct_400_100.recon.AOD.e3994_a875_r10724
mc16_13TeV.387012.MGPy8EG_A14N_BB_direct_400_200.recon.AOD.e3994_a875_r10724
mc16_13TeV.387013.MGPy8EG_A14N_BB_direct_400_300.recon.AOD.e3994_a875_r10724
mc16_13TeV.387014.MGPy8EG_A14N_BB_direct_400_380.recon.AOD.e3994_a875_r10724
mc16_13TeV.387015.MGPy8EG_A14N_BB_direct_400_395.recon.AOD.e3994_a875_r10724
mc16_13TeV.387016.MGPy8EG_A14N_BB_direct_450_400.recon.AOD.e3994_a875_r10724
mc16_13TeV.387017.MGPy8EG_A14N_BB_direct_450_430.recon.AOD.e3994_a875_r10724
mc16_13TeV.387018.MGPy8EG_A14N_BB_direct_450_445.recon.AOD.e3994_a875_r10724
mc16_13TeV.387019.MGPy8EG_A14N_BB_direct_500_1.recon.AOD.e3994_a875_r10724
mc16_13TeV.387020.MGPy8EG_A14N_BB_direct_500_100.recon.AOD.e3994_a875_r10724
mc16_13TeV.387021.MGPy8EG_A14N_BB_direct_500_200.recon.AOD.e3994_a875_r10724
mc16_13TeV.387022.MGPy8EG_A14N_BB_direct_500_300.recon.AOD.e3994_a875_r10724
mc16_13TeV.387023.MGPy8EG_A14N_BB_direct_500_400.recon.AOD.e3994_a875_r10724
mc16_13TeV.387024.MGPy8EG_A14N_BB_direct_500_480.recon.AOD.e3994_a875_r10724
mc16_13TeV.387025.MGPy8EG_A14N_BB_direct_500_495.recon.AOD.e3994_a875_r10724
mc16_13TeV.387026.MGPy8EG_A14N_BB_direct_550_1.recon.AOD.e3994_a875_r10724
mc16_13TeV.387027.MGPy8EG_A14N_BB_direct_550_100.recon.AOD.e3994_a875_r10724
mc16_13TeV.387028.MGPy8EG_A14N_BB_direct_550_200.recon.AOD.e3994_a875_r10724
mc16_13TeV.387031.MGPy8EG_A14N_BB_direct_550_500.recon.AOD.e3994_a875_r10724
mc16_13TeV.387032.MGPy8EG_A14N_BB_direct_550_530.recon.AOD.e3994_a875_r10724
mc16_13TeV.387033.MGPy8EG_A14N_BB_direct_550_545.recon.AOD.e3994_a875_r10724
mc16_13TeV.387034.MGPy8EG_A14N_BB_direct_600_1.recon.AOD.e3994_a875_r10724
mc16_13TeV.387035.MGPy8EG_A14N_BB_direct_600_100.recon.AOD.e3994_a875_r10724
mc16_13TeV.387036.MGPy8EG_A14N_BB_direct_600_200.recon.AOD.e3994_a875_r10724
mc16_13TeV.387037.MGPy8EG_A14N_BB_direct_600_300.recon.AOD.e3994_a875_r10724
mc16_13TeV.387040.MGPy8EG_A14N_BB_direct_600_580.recon.AOD.e3994_a875_r10724
mc16_13TeV.387041.MGPy8EG_A14N_BB_direct_600_595.recon.AOD.e3994_a875_r10724
mc16_13TeV.387042.MGPy8EG_A14N_BB_direct_650_1.recon.AOD.e3994_a875_r10724
mc16_13TeV.387043.MGPy8EG_A14N_BB_direct_650_100.recon.AOD.e3994_a875_r10724
mc16_13TeV.387044.MGPy8EG_A14N_BB_direct_650_200.recon.AOD.e3994_a875_r10724
mc16_13TeV.387049.MGPy8EG_A14N_BB_direct_700_1.recon.AOD.e3994_a875_r10724
mc16_13TeV.387050.MGPy8EG_A14N_BB_direct_700_100.recon.AOD.e3994_a875_r10724
mc16_13TeV.387051.MGPy8EG_A14N_BB_direct_700_200.recon.AOD.e3994_a875_r10724
mc16_13TeV.387056.MGPy8EG_A14N_BB_direct_750_1.recon.AOD.e3994_a875_r10724
mc16_13TeV.387057.MGPy8EG_A14N_BB_direct_750_100.recon.AOD.e3994_a875_r10724
mc16_13TeV.387058.MGPy8EG_A14N_BB_direct_750_200.recon.AOD.e3994_a875_r10724
mc16_13TeV.387063.MGPy8EG_A14N_BB_direct_800_1.recon.AOD.e3994_a875_r10724
mc16_13TeV.387064.MGPy8EG_A14N_BB_direct_800_100.recon.AOD.e3994_a875_r10724
mc16_13TeV.387065.MGPy8EG_A14N_BB_direct_800_150.recon.AOD.e3994_a875_r10724
mc16_13TeV.387072.MGPy8EG_A14N_BB_direct_800_50.recon.AOD.e3994_a875_r10724
mc16_13TeV.387128.MGPy8EG_A14N_BB_direct_300_230_MET100.recon.AOD.e4834_a875_r10724
mc16_13TeV.387130.MGPy8EG_A14N_BB_direct_350_250_MET100.recon.AOD.e4834_a875_r10724
mc16_13TeV.387132.MGPy8EG_A14N_BB_direct_450_350.recon.AOD.e4834_a875_r10724
#
#
#
# TT
#
mc16_13TeV.387775.MGPy8EG_A14N23LO_TT_directCC_250_230_MET100.recon.AOD.e4552_a875_r10724
mc16_13TeV.387776.MGPy8EG_A14N23LO_TT_directCC_250_230_MET250.recon.AOD.e4552_a875_r10724
mc16_13TeV.387777.MGPy8EG_A14N23LO_TT_directCC_275_195_MET100.recon.AOD.e4552_a875_r10724
mc16_13TeV.387778.MGPy8EG_A14N23LO_TT_directCC_275_195_MET250.recon.AOD.e4552_a875_r10724
mc16_13TeV.387779.MGPy8EG_A14N23LO_TT_directCC_275_225_MET100.recon.AOD.e4552_a875_r10724
mc16_13TeV.387780.MGPy8EG_A14N23LO_TT_directCC_275_225_MET250.recon.AOD.e4552_a875_r10724
mc16_13TeV.387781.MGPy8EG_A14N23LO_TT_directCC_275_250_MET100.recon.AOD.e4552_a875_r10724
mc16_13TeV.387782.MGPy8EG_A14N23LO_TT_directCC_275_250_MET250.recon.AOD.e4552_a875_r10724
mc16_13TeV.387783.MGPy8EG_A14N23LO_TT_directCC_275_270_MET100.recon.AOD.e4552_a875_r10724
mc16_13TeV.387784.MGPy8EG_A14N23LO_TT_directCC_275_270_MET250.recon.AOD.e4552_a875_r10724
mc16_13TeV.387785.MGPy8EG_A14N23LO_TT_directCC_300_220_MET100.recon.AOD.e4552_a875_r10724
mc16_13TeV.387786.MGPy8EG_A14N23LO_TT_directCC_300_220_MET250.recon.AOD.e4552_a875_r10724
mc16_13TeV.387787.MGPy8EG_A14N23LO_TT_directCC_300_260_MET100.recon.AOD.e4552_a875_r10724
mc16_13TeV.387788.MGPy8EG_A14N23LO_TT_directCC_300_260_MET250.recon.AOD.e4552_a875_r10724
mc16_13TeV.387789.MGPy8EG_A14N23LO_TT_directCC_300_280_MET100.recon.AOD.e4552_a875_r10724
mc16_13TeV.387790.MGPy8EG_A14N23LO_TT_directCC_300_280_MET250.recon.AOD.e4552_a875_r10724
mc16_13TeV.387791.MGPy8EG_A14N23LO_TT_directCC_300_295_MET100.recon.AOD.e4552_a875_r10724
mc16_13TeV.387792.MGPy8EG_A14N23LO_TT_directCC_300_295_MET250.recon.AOD.e4552_a875_r10724
mc16_13TeV.387793.MGPy8EG_A14N23LO_TT_directCC_325_245_MET100.recon.AOD.e4552_a875_r10724
mc16_13TeV.387794.MGPy8EG_A14N23LO_TT_directCC_325_245_MET250.recon.AOD.e4552_a875_r10724
mc16_13TeV.387795.MGPy8EG_A14N23LO_TT_directCC_325_260_MET100.recon.AOD.e4552_a875_r10724
mc16_13TeV.387796.MGPy8EG_A14N23LO_TT_directCC_325_260_MET250.recon.AOD.e4552_a875_r10724
mc16_13TeV.387797.MGPy8EG_A14N23LO_TT_directCC_325_295_MET100.recon.AOD.e4552_a875_r10724
mc16_13TeV.387798.MGPy8EG_A14N23LO_TT_directCC_325_295_MET250.recon.AOD.e4552_a875_r10724
mc16_13TeV.387799.MGPy8EG_A14N23LO_TT_directCC_325_320_MET100.recon.AOD.e4552_a875_r10724
mc16_13TeV.387800.MGPy8EG_A14N23LO_TT_directCC_325_320_MET250.recon.AOD.e4552_a875_r10724
mc16_13TeV.387801.MGPy8EG_A14N23LO_TT_directCC_350_270_MET100.recon.AOD.e4552_a875_r10724
mc16_13TeV.387802.MGPy8EG_A14N23LO_TT_directCC_350_270_MET250.recon.AOD.e4552_a875_r10724
mc16_13TeV.387803.MGPy8EG_A14N23LO_TT_directCC_350_295_MET100.recon.AOD.e4552_a875_r10724
mc16_13TeV.387804.MGPy8EG_A14N23LO_TT_directCC_350_295_MET250.recon.AOD.e4552_a875_r10724
mc16_13TeV.387805.MGPy8EG_A14N23LO_TT_directCC_350_305_MET100.recon.AOD.e4552_a875_r10724
mc16_13TeV.387806.MGPy8EG_A14N23LO_TT_directCC_350_305_MET250.recon.AOD.e4552_a875_r10724
mc16_13TeV.387807.MGPy8EG_A14N23LO_TT_directCC_350_345_MET100.recon.AOD.e4552_a875_r10724
mc16_13TeV.387808.MGPy8EG_A14N23LO_TT_directCC_350_345_MET250.recon.AOD.e4552_a875_r10724
mc16_13TeV.387809.MGPy8EG_A14N23LO_TT_directCC_375_295_MET100.recon.AOD.e4552_a875_r10724
mc16_13TeV.387810.MGPy8EG_A14N23LO_TT_directCC_375_295_MET250.recon.AOD.e4552_a875_r10724
mc16_13TeV.387811.MGPy8EG_A14N23LO_TT_directCC_375_315_MET100.recon.AOD.e4552_a875_r10724
mc16_13TeV.387812.MGPy8EG_A14N23LO_TT_directCC_375_315_MET250.recon.AOD.e4552_a875_r10724
mc16_13TeV.387813.MGPy8EG_A14N23LO_TT_directCC_375_345_MET100.recon.AOD.e4552_a875_r10724
mc16_13TeV.387814.MGPy8EG_A14N23LO_TT_directCC_375_345_MET250.recon.AOD.e4552_a875_r10724
mc16_13TeV.387815.MGPy8EG_A14N23LO_TT_directCC_375_370_MET100.recon.AOD.e4552_a875_r10724
mc16_13TeV.387816.MGPy8EG_A14N23LO_TT_directCC_375_370_MET250.recon.AOD.e4552_a875_r10724
mc16_13TeV.387817.MGPy8EG_A14N23LO_TT_directCC_400_320_MET100.recon.AOD.e4552_a875_r10724
mc16_13TeV.387818.MGPy8EG_A14N23LO_TT_directCC_400_320_MET250.recon.AOD.e4552_a875_r10724
mc16_13TeV.387819.MGPy8EG_A14N23LO_TT_directCC_400_330_MET100.recon.AOD.e4552_a875_r10724
mc16_13TeV.387820.MGPy8EG_A14N23LO_TT_directCC_400_330_MET250.recon.AOD.e4552_a875_r10724
mc16_13TeV.387821.MGPy8EG_A14N23LO_TT_directCC_400_370_MET100.recon.AOD.e4552_a875_r10724
mc16_13TeV.387822.MGPy8EG_A14N23LO_TT_directCC_400_370_MET250.recon.AOD.e4552_a875_r10724
mc16_13TeV.387823.MGPy8EG_A14N23LO_TT_directCC_400_395_MET100.recon.AOD.e4552_a875_r10724
mc16_13TeV.387824.MGPy8EG_A14N23LO_TT_directCC_400_395_MET250.recon.AOD.e4552_a875_r10724
mc16_13TeV.387825.MGPy8EG_A14N23LO_TT_directCC_450_370_MET100.recon.AOD.e4552_a875_r10724
mc16_13TeV.387826.MGPy8EG_A14N23LO_TT_directCC_450_370_MET250.recon.AOD.e4552_a875_r10724
mc16_13TeV.387827.MGPy8EG_A14N23LO_TT_directCC_450_395_MET100.recon.AOD.e4552_a875_r10724
mc16_13TeV.387828.MGPy8EG_A14N23LO_TT_directCC_450_395_MET250.recon.AOD.e4552_a875_r10724
mc16_13TeV.387829.MGPy8EG_A14N23LO_TT_directCC_450_425_MET100.recon.AOD.e4552_a875_r10724
mc16_13TeV.387830.MGPy8EG_A14N23LO_TT_directCC_450_425_MET250.recon.AOD.e4552_a875_r10724
mc16_13TeV.387831.MGPy8EG_A14N23LO_TT_directCC_450_445_MET100.recon.AOD.e4552_a875_r10724
mc16_13TeV.387832.MGPy8EG_A14N23LO_TT_directCC_450_445_MET250.recon.AOD.e4552_a875_r10724
mc16_13TeV.387833.MGPy8EG_A14N23LO_TT_directCC_500_420_MET100.recon.AOD.e4552_a875_r10724
mc16_13TeV.387834.MGPy8EG_A14N23LO_TT_directCC_500_420_MET250.recon.AOD.e4552_a875_r10724
mc16_13TeV.387835.MGPy8EG_A14N23LO_TT_directCC_500_445_MET100.recon.AOD.e4552_a875_r10724
mc16_13TeV.387836.MGPy8EG_A14N23LO_TT_directCC_500_445_MET250.recon.AOD.e4552_a875_r10724
mc16_13TeV.387837.MGPy8EG_A14N23LO_TT_directCC_500_485_MET100.recon.AOD.e4552_a875_r10724
mc16_13TeV.387838.MGPy8EG_A14N23LO_TT_directCC_500_485_MET250.recon.AOD.e4552_a875_r10724
mc16_13TeV.387839.MGPy8EG_A14N23LO_TT_directCC_500_495_MET100.recon.AOD.e4552_a875_r10724
mc16_13TeV.387840.MGPy8EG_A14N23LO_TT_directCC_500_495_MET250.recon.AOD.e4552_a875_r10724
mc16_13TeV.387841.MGPy8EG_A14N23LO_TT_directCC_550_470_MET100.recon.AOD.e4552_a875_r10724
mc16_13TeV.387842.MGPy8EG_A14N23LO_TT_directCC_550_470_MET250.recon.AOD.e4552_a875_r10724
mc16_13TeV.387843.MGPy8EG_A14N23LO_TT_directCC_550_510_MET100.recon.AOD.e4552_a875_r10724
mc16_13TeV.387844.MGPy8EG_A14N23LO_TT_directCC_550_510_MET250.recon.AOD.e4552_a875_r10724
mc16_13TeV.387845.MGPy8EG_A14N23LO_TT_directCC_550_530_MET100.recon.AOD.e4552_a875_r10724
mc16_13TeV.387846.MGPy8EG_A14N23LO_TT_directCC_550_530_MET250.recon.AOD.e4552_a875_r10724
mc16_13TeV.387847.MGPy8EG_A14N23LO_TT_directCC_550_545_MET100.recon.AOD.e4552_a875_r10724
mc16_13TeV.387848.MGPy8EG_A14N23LO_TT_directCC_550_545_MET250.recon.AOD.e4552_a875_r10724
mc16_13TeV.387849.MGPy8EG_A14N23LO_TT_directCC_600_520_MET100.recon.AOD.e4552_a875_r10724
mc16_13TeV.387850.MGPy8EG_A14N23LO_TT_directCC_600_520_MET250.recon.AOD.e4552_a875_r10724
mc16_13TeV.387851.MGPy8EG_A14N23LO_TT_directCC_600_550_MET100.recon.AOD.e4552_a875_r10724
mc16_13TeV.387852.MGPy8EG_A14N23LO_TT_directCC_600_550_MET250.recon.AOD.e4552_a875_r10724
mc16_13TeV.387853.MGPy8EG_A14N23LO_TT_directCC_600_585_MET100.recon.AOD.e4552_a875_r10724
mc16_13TeV.387854.MGPy8EG_A14N23LO_TT_directCC_600_585_MET250.recon.AOD.e4552_a875_r10724
mc16_13TeV.387855.MGPy8EG_A14N23LO_TT_directCC_600_595_MET100.recon.AOD.e4552_a875_r10724
mc16_13TeV.387856.MGPy8EG_A14N23LO_TT_directCC_600_595_MET250.recon.AOD.e4552_a875_r10724
#
#
#
# stop 4-body
#
mc16_13TeV.390850.MGPy8EG_A14N23LO_TT_bffN_250_200_MadSpin_m100.recon.AOD.e5548_a875_r10724
mc16_13TeV.390851.MGPy8EG_A14N23LO_TT_bffN_250_230_MadSpin_m100.recon.AOD.e5548_a875_r10724
mc16_13TeV.390852.MGPy8EG_A14N23LO_TT_bffN_250_243_MadSpin_m100.recon.AOD.e5548_a875_r10724
mc16_13TeV.390853.MGPy8EG_A14N23LO_TT_bffN_300_220_MadSpin_m100.recon.AOD.e5548_a875_r10724
mc16_13TeV.390854.MGPy8EG_A14N23LO_TT_bffN_300_250_MadSpin_m100.recon.AOD.e5548_a875_r10724
mc16_13TeV.390855.MGPy8EG_A14N23LO_TT_bffN_300_280_MadSpin_m100.recon.AOD.e5548_a875_r10724
mc16_13TeV.390856.MGPy8EG_A14N23LO_TT_bffN_300_293_MadSpin_m100.recon.AOD.e5548_a875_r10724
mc16_13TeV.390857.MGPy8EG_A14N23LO_TT_bffN_350_270_MadSpin_m100.recon.AOD.e5548_a875_r10724
mc16_13TeV.390858.MGPy8EG_A14N23LO_TT_bffN_350_300_MadSpin_m100.recon.AOD.e5548_a875_r10724
mc16_13TeV.390859.MGPy8EG_A14N23LO_TT_bffN_350_330_MadSpin_m100.recon.AOD.e5548_a875_r10724
mc16_13TeV.390860.MGPy8EG_A14N23LO_TT_bffN_350_343_MadSpin_m100.recon.AOD.e5548_a875_r10724
mc16_13TeV.390861.MGPy8EG_A14N23LO_TT_bffN_400_320_MadSpin_m100.recon.AOD.e5548_a875_r10724
mc16_13TeV.390862.MGPy8EG_A14N23LO_TT_bffN_400_350_MadSpin_m100.recon.AOD.e5548_a875_r10724
mc16_13TeV.390863.MGPy8EG_A14N23LO_TT_bffN_400_380_MadSpin_m100.recon.AOD.e5548_a875_r10724
mc16_13TeV.390864.MGPy8EG_A14N23LO_TT_bffN_400_393_MadSpin_m100.recon.AOD.e5548_a875_r10724
########## rucio ls mc16_13TeV.390865.MGPy8EG_A14N23LO_TT_bffN_450_370_MadSpin_m100.recon.AOD.*e**r10724*
mc16_13TeV.390866.MGPy8EG_A14N23LO_TT_bffN_450_400_MadSpin_m100.recon.AOD.e5548_a875_r10724
mc16_13TeV.390867.MGPy8EG_A14N23LO_TT_bffN_450_430_MadSpin_m100.recon.AOD.e5548_a875_r10724
mc16_13TeV.390868.MGPy8EG_A14N23LO_TT_bffN_450_443_MadSpin_m100.recon.AOD.e5548_a875_r10724
########## rucio ls mc16_13TeV.390869.MGPy8EG_A14N23LO_TT_bffN_500_420_MadSpin_m100.recon.AOD.*e**r10724*
mc16_13TeV.390870.MGPy8EG_A14N23LO_TT_bffN_500_450_MadSpin_m100.recon.AOD.e5548_a875_r10724
mc16_13TeV.390871.MGPy8EG_A14N23LO_TT_bffN_500_480_MadSpin_m100.recon.AOD.e5548_a875_r10724
mc16_13TeV.390872.MGPy8EG_A14N23LO_TT_bffN_500_493_MadSpin_m100.recon.AOD.e5548_a875_r10724
########## rucio ls mc16_13TeV.390873.MGPy8EG_A14N23LO_TT_bffN_550_470_MadSpin_m100.recon.AOD.*e**r10724*
mc16_13TeV.390874.MGPy8EG_A14N23LO_TT_bffN_550_500_MadSpin_m100.recon.AOD.e5548_a875_r10724
mc16_13TeV.390875.MGPy8EG_A14N23LO_TT_bffN_550_530_MadSpin_m100.recon.AOD.e5548_a875_r10724
mc16_13TeV.390876.MGPy8EG_A14N23LO_TT_bffN_550_543_MadSpin_m100.recon.AOD.e5548_a875_r10724
#
#
#
#LLP
#
########## rucio ls mc16_13TeV.303680.MadGraphPythia8EvtGen_A14NNPDF23LO_HSS_LongLived_mH125_mS15.recon.AOD.*e**r10724*
########## rucio ls mc16_13TeV.303681.MadGraphPythia8EvtGen_A14NNPDF23LO_HSS_LongLived_mH125_mS40.recon.AOD.*e**r10724*
#
########## rucio ls mc16_13TeV.304794.MadGraphPythia8EvtGen_A14NNPDF23LO_HSS_LLP_mH125_mS8_lt5m.recon.AOD.*e**r10724*
mc16_13TeV.304795.MadGraphPythia8EvtGen_A14NNPDF23LO_HSS_LLP_mH125_mS25_lt5m.recon.AOD.e4754_s3126_r10724
########## rucio ls mc16_13TeV.304796.MadGraphPythia8EvtGen_A14NNPDF23LO_HSS_LLP_mH125_mS55_lt5m.recon.AOD.*e**r10724*
########## rucio ls mc16_13TeV.304797.MadGraphPythia8EvtGen_A14NNPDF23LO_HSS_LLP_mH125_mS8_lt9m.recon.AOD.*e**r10724*
########## rucio ls mc16_13TeV.304798.MadGraphPythia8EvtGen_A14NNPDF23LO_HSS_LLP_mH125_mS15_lt9m.recon.AOD.*e**r10724*
########## rucio ls mc16_13TeV.304799.MadGraphPythia8EvtGen_A14NNPDF23LO_HSS_LLP_mH125_mS25_lt9m.recon.AOD.*e**r10724*
########## rucio ls mc16_13TeV.304800.MadGraphPythia8EvtGen_A14NNPDF23LO_HSS_LLP_mH125_mS40_lt9m.recon.AOD.*e**r10724*
########## rucio ls mc16_13TeV.304801.MadGraphPythia8EvtGen_A14NNPDF23LO_HSS_LLP_mH125_mS55_lt9m.recon.AOD.*e**r10724*
########## rucio ls mc16_13TeV.304802.MadGraphPythia8EvtGen_A14NNPDF23LO_HSS_LLP_mH100_mS8_lt5m.recon.AOD.*e**r10724*
########## rucio ls mc16_13TeV.304803.MadGraphPythia8EvtGen_A14NNPDF23LO_HSS_LLP_mH100_mS25_lt5m.recon.AOD.*e**r10724*
########## rucio ls mc16_13TeV.304804.MadGraphPythia8EvtGen_A14NNPDF23LO_HSS_LLP_mH200_mS8_lt5m.recon.AOD.*e**r10724*
mc16_13TeV.304805.MadGraphPythia8EvtGen_A14NNPDF23LO_HSS_LLP_mH200_mS25_lt5m.recon.AOD.e5102_s3126_r10724
########## rucio ls mc16_13TeV.304806.MadGraphPythia8EvtGen_A14NNPDF23LO_HSS_LLP_mH200_mS50_lt5m.recon.AOD.*e**r10724*
########## rucio ls mc16_13TeV.304807.MadGraphPythia8EvtGen_A14NNPDF23LO_HSS_LLP_mH200_mS8_lt9m.recon.AOD.*e**r10724*
########## rucio ls mc16_13TeV.304808.MadGraphPythia8EvtGen_A14NNPDF23LO_HSS_LLP_mH200_mS25_lt9m.recon.AOD.*e**r10724*
########## rucio ls mc16_13TeV.304809.MadGraphPythia8EvtGen_A14NNPDF23LO_HSS_LLP_mH200_mS50_lt9m.recon.AOD.*e**r10724*
mc16_13TeV.304810.MadGraphPythia8EvtGen_A14NNPDF23LO_HSS_LLP_mH400_mS50_lt5m.recon.AOD.e5102_s3126_r10724
########## rucio ls mc16_13TeV.304811.MadGraphPythia8EvtGen_A14NNPDF23LO_HSS_LLP_mH400_mS100_lt5m.recon.AOD.*e**r10724*
########## rucio ls mc16_13TeV.304812.MadGraphPythia8EvtGen_A14NNPDF23LO_HSS_LLP_mH400_mS50_lt9m.recon.AOD.*e**r10724*
########## rucio ls mc16_13TeV.304813.MadGraphPythia8EvtGen_A14NNPDF23LO_HSS_LLP_mH400_mS100_lt9m.recon.AOD.*e**r10724*
########## rucio ls mc16_13TeV.304814.MadGraphPythia8EvtGen_A14NNPDF23LO_HSS_LLP_mH600_mS50_lt5m.recon.AOD.*e**r10724*
mc16_13TeV.304815.MadGraphPythia8EvtGen_A14NNPDF23LO_HSS_LLP_mH600_mS150_lt5m.recon.AOD.e5102_s3126_r10724
########## rucio ls mc16_13TeV.304816.MadGraphPythia8EvtGen_A14NNPDF23LO_HSS_LLP_mH600_mS50_lt9m.recon.AOD.*e**r10724*
########## rucio ls mc16_13TeV.304817.MadGraphPythia8EvtGen_A14NNPDF23LO_HSS_LLP_mH600_mS150_lt9m.recon.AOD.*e**r10724*
########## rucio ls mc16_13TeV.304818.MadGraphPythia8EvtGen_A14NNPDF23LO_HSS_LLP_mH1000_mS50_lt5m.recon.AOD.*e**r10724*
########## rucio ls mc16_13TeV.304819.MadGraphPythia8EvtGen_A14NNPDF23LO_HSS_LLP_mH1000_mS150_lt5m.recon.AOD.*e**r10724*
########## rucio ls mc16_13TeV.304820.MadGraphPythia8EvtGen_A14NNPDF23LO_HSS_LLP_mH1000_mS400_lt5m.recon.AOD.*e**r10724*
########## rucio ls mc16_13TeV.304821.MadGraphPythia8EvtGen_A14NNPDF23LO_HSS_LLP_mH1000_mS50_lt9m.recon.AOD.*e**r10724*
########## rucio ls mc16_13TeV.304822.MadGraphPythia8EvtGen_A14NNPDF23LO_HSS_LLP_mH1000_mS150_lt9m.recon.AOD.*e**r10724*
########## rucio ls mc16_13TeV.304823.MadGraphPythia8EvtGen_A14NNPDF23LO_HSS_LLP_mH1000_mS400_lt9m.recon.AOD.*e**r10724*
#
#
########## rucio ls mc16_13TeV.305588.MadGraphPythia8EvtGen_A14NNPDF23LO_HSS_LLP_mH125_mS5_lt5m.recon.AOD.*e**r10724*
########## rucio ls mc16_13TeV.305589.MadGraphPythia8EvtGen_A14NNPDF23LO_HSS_LLP_mH125_mS5_lt9m.recon.AOD.*e**r10724*
#
#
#
#Higgs Invs
#
mc16_13TeV.301399.PowhegPythia8EvtGen_CT10_AZNLOCTEQ6L1_VBFH125_ZZ4nu.recon.AOD.e3909_s3126_r10724
mc16_13TeV.304902.PowhegPythia8EvtGen_CT10_AZNLOCTEQ6L1_ggFH125_ZZ4nu.recon.AOD.e4783_a875_r10724
mc16_13TeV.308284.PowhegPythia8EvtGen_NNLOPS_nnlo_30_ggH125_ZZ4nu_MET75.recon.AOD.e6126_s3126_r10724
mc16_13TeV.308276.PowhegPy8EG_NNPDF30_AZNLOCTEQ6L1_VBFH125_ZZ4nu_MET125.recon.AOD.e6126_s3126_r10724
########## rucio ls mc16_13TeV.345596.PowhegPythia8EvtGen_NNPDF3_AZNLO_ggZH125_Zinc_HZZinv.recon.AOD.*e**r10724*
